3
27
182
34
306
348
118
260
335
208
6
54
85
364
211
295
249
236
269
15
135
12
170
327
136
21
97
71
238
137
270
24
216
340
272
42
378
194
75
274
60
139
31
279
105
143
355
388
284
150
120
278
96
62
210
286
168
309
167
300
294
240
192
124
314
19
336
217
349
334
187
79
310
384
227
38
342
271
297
267
398
374
219
367
95
53
283
141
66
193
395
347
316
37
190
106
152
165
132
386
266
389
231
74
265
380
304
330
163
264
131
377
185
61
129
359
23
207
326
127
341
262
370
122
296
258
46
13
117
251
281
123
305
339
191
115
233
92
234
101
107
161
209
277
87
382
65
184
52
67
214
322
91
17
174
363
59
130
104
134
