u1,u2
0.0007250886413851234,0.0007538083012932019
0.0008700978946267152,0.0004954715261680407
0.00031075906022952826,0.0006505963395585289
0.0005386406558280069,0.0007230974737196683
0.0006214962343785429,0.00024472968664240543
0.0002693310381236165,0.0008785412650921109
0.0005386448467795946,0.0009253988978105592
0.00010359613229688077,0.0006889021027315883
2.072518692385647e-05,0.0004254980014755847
0.000787229743221416,0.000366935040972631
0.0008908049207603582,4.433002324976494e-05
0.0007872283462375534,0.000299501232942334
0.0007872390564471665,0.0008164937611746107
0.0009529637177255767,0.0005116183313129555
0.0006836433898115733,0.00015006959445312135
0.00049720983975437,0.0008161747831926564
0.0004764813932015008,0.00023333122964637877
0.0006007864142771747,0.0005610035735000873
0.0005386350678925566,0.0004533622415984805
0.0006007836203094496,0.00042613595743949337
4.1442923267112543e-05,0.0004913490267895856
0.0007250863130786858,0.000641418621242707
0.000932243653075883,0.00033337762594845967
0.0002900431865314223,0.0006746570582849239
0.00014502089477377985,0.0003036116251273135
0.00045576132855180713,5.5090524281882925e-05
0.0001035947353130182,0.0006214682947012914
0.000538632739586119,0.00034097256154798556
0.0006836568939889115,0.000801929738745992
0.0001035835594421176,8.199783045891571e-05
0.00012430129578537368,0.00014784885577291663
0.00026931334299469057,2.437969670834937e-05
0.0007457979958252041,0.00041505647842542104
0.000952968374338452,0.0007363976914139454
5.587935450294956e-09,0.00026973523212118784
0.00014502136043506738,0.00032608956113741247
0.0006836499090695986,0.00046476069859450716
0.000994403847024964,0.0008680997420419472
0.0008701016199170154,0.0006752950142488326
0.0004764809275402133,0.00021085329363627978
0.0001243110746724117,0.0006198855119849953
0.0007665087472491473,0.00014373846358793716
0.00029003107933794664,9.023072202235028e-05
4.143547268651215e-05,0.00013170205062800183
0.000766522717087773,0.0008180765438909068
0.0006422125737379364,0.00024314690392610938
2.0716805020681026e-05,2.089515329380294e-05
0.0005386280829732437,0.0001161932014469957
0.0005593448879939247,0.00013708835474079864
0.0008493796926221716,0.0004071425648439408
0.0009736842480365579,0.0007123369726875503
0.0006629386919843679,0.000713600777421892
8.286628876014905e-05,3.862474115501379e-05
0.0005800658839661935,0.00036028493212549246
0.0002486035228933224,0.0003406535835660312
0.0007043569352032416,1.3619195676231382e-05
6.215972828779357e-05,0.0005122441800833885
4.1440129299387396e-05,0.0003564814107289917
0.0005386285486345312,0.00013867113745709468
0.0002071745694648356,0.0005236426370794152
0.00018644938254097914,9.814463560383051e-05
0.00010360172023233106,0.0009586373348527762
2.0726118246431518e-05,0.00047045387349578267
0.00047649163774982637,0.0007278458218685565
0.0007665171291523227,0.0005483413117697189
0.0004143416883490708,0.0006876382979972466
0.0005386411214892944,0.0007455754097297673
0.00039362581465096484,0.0007116990167236417
0.0003521903419644527,0.0005799969660956398
0.0004557762297130079,0.0007743844766050505
0.00018646800899248012,0.00099726207600779
0.0006214948373946803,0.00017729587861210847
6.21564686587809e-05,0.00035489862801269564
0.0002693212592365785,0.00040650460888003214
0.0004972135650446702,0.0009959982712734483
0.0007043662484289921,0.0004631779158782111
0.0003728996964045333,0.000241245143227859
0.000890819821921559,0.0007636239755729325
0.0003729108722754339,0.0007807156074702347
0.00043504731749885125,0.0001690629870486739
0.00037291133793672143,0.0008031935434803337
0.00045576971045498257,0.0004596933724636647
0.0006422223526249744,0.0007151835601381881
0.000849388074525347,0.0008117454130257226
0.0005800644869823309,0.0002928511240951955
0.00039361463878006425,0.000172228552481266
0.0005593625831228507,0.0009912499231245601
0.00041434261967164586,0.0007325941700174446
0.00020717503512612313,0.0005461205730895142
8.287047971173678e-05,0.00024092616524590466
0.00080795539580656,0.0008149109784583147
0.0008908179592764089,0.0006737122315325366
0.0007458054464058045,0.0007747034545870048
0.0008908226158892841,0.0008984915916335264
0.0006215074102494434,0.0007842001508847811
4.145177083157551e-05,0.0009184298109814663
0.0006007859486158872,0.0005385256374899883
0.0002693249845268787,0.000586328096960824
6.216671320710644e-05,0.0008494132202348733
0.0005593500102680875,0.0003843456508518875
0.0007665250453942106,0.0009304662239414017
0.00024860072892559726,0.0002057859675054373
2.07182020045436e-05,8.83289613240999e-05
0.000807945616919522,0.00034287432224623595
0.0008286666128917907,0.0005660708996309298
0.000517926644775051,0.0008370699364864593
0.0008286586966499028,0.000183945987459247
0.0007872413847536041,0.0009288834412251056
0.0008286577653273278,0.00013899011543904902
0.0004143286498330201,5.825608971447502e-05
0.0009529571984675514,0.0001969272271715697
8.287420500203697e-05,0.00042074965332669655
0.0003728978337593832,0.00015133339918746306
0.0003521814943999897,0.0001529161819037591
0.0009115338329745148,0.0006496515128061415
0.0009529544044998262,6.205961111097578e-05
0.00020717969173899837,0.0007708999331905041
0.000642225612253987,0.000872529112208881
0.0003729034216948335,0.0004210686313086509
0.000414335634752333,0.0003954251298659598
0.0009115217257810392,6.522517654356788e-05
0.0002900436521927098,0.0006971349942950229
0.0008079390976614967,2.8183218104850137e-05
0.0004350617529987645,0.0008658790033617425
0.0009322450500597456,0.0004008114339787566
4.656612875245797e-10,2.2477936010098986e-05
4.144851120256284e-05,0.0007610842589107734
0.000828662421940203,0.0003637694755400389
2.0722858617418845e-05,0.00031310832142508976
0.000372902956033546,0.0003985906952985519
0.0008286596279724779,0.00022890185947944497
0.00033146748334703384,0.0002668886446705501
0.0006836480464244485,0.0003748489545541112
0.0004972075114479323,0.0007037851031421614
6.216578188453139e-05,0.0008044573482146754
0.00020716618756166016,0.00011903978889763345
0.0005593542012196752,0.0005866470749427784
0.0006629438142585306,0.0009608580735329809
0.0004350556994020267,0.0005736658352304557
0.00039363140258641513,0.0009814342488448295
0.0003936155701026393,0.00021718442450146397
0.0004350519741117265,0.00039384234714966377
0.000476485118491801,0.00041315471772717066
0.0006422190929959617,0.0005578380080674952
0.000372912734920584,0.0008706273515106306
0.0005179294387427761,0.0009719375525470532
0.0003729104066141464,0.0007582376714601357
0.00014502787969309272,0.0006407806652787983
0.0006629382263230804,0.0006911228414117931
1.0244548325540753e-08,0.0004945145922221777
0.0008286675442143658,0.0006110267716511277
0.0006629242564844546,1.6784761108823475e-05
4.144059496067492e-05,0.0003789593467390907
0.0003314707429760465,0.000424234196741243
0.0005386420528118694,0.0007905312817499653
0.0007665134038620225,0.000368517823688927
0.0005386341365699815,0.0004084063695782825
0.0007458040494219419,0.0007072696465567079
0.0003521908076257402,0.0006024749021057388
0.0007457938048736163,0.00021275505433453017
0.0009322375994791452,4.1164457817172845e-05
0.0006422097797702112,0.00010827928786551547
1.8160790213458608e-08,0.0008766395043938605
2.0023435363556927e-08,0.0009665512484342564
0.000973686110681708,0.0008022487167279463
0.0007665175948136102,0.0005708192477798179
0.0005593588578325505,0.0008114264350437682
6.21527433684807e-05,0.00017507513993190375
0.00031076464816497855,0.0009203315716797167
0.0009322464470436082,0.0004682452420090536
0.0004764907064272513,0.0006828899498483585
0.0003314726056211966,0.0005141459407816389
0.0007043704393805798,0.000665479339969102
0.000517916865888013,0.0003650332802743806
0.000642214902044374,0.0003555365839766043
0.00020716944719067283,0.00027638534096832636
0.0006214943717333928,0.00015481794260200949
0.0007250867787399733,0.0006638965572528059
0.00024861004215134775,0.000655344687707417
0.0009115301076842146,0.00046982802472534963
0.00043504918014400135,0.00025897473108906985
0.0005800705405790687,0.0005850642922264823
0.00012430315843052378,0.00023776059981331257
0.0008493820209286092,0.0005195322448944357
0.0002900324763218092,0.00015766453005264724
0.0002900478431442975,0.0008994364183859138
0.00037290062772710837,0.000286201015248057
0.0006422088484476362,6.33234158453175e-05
0.0006629326383876301,0.00042138760929060523
0.0009322566915919337,0.0009627598342312313
2.072332427870637e-05,0.00033558625743518875
0.0004972056488027822,0.0006138733591017655
0.0007457896139220286,1.045363024363929e-05
0.0006836494434083111,0.00044228276258440817
0.00029004737748301,0.0008769584823758148
0.0007250807251432355,0.0003716833891215191
0.00020717550078741065,0.0005685985090996132
0.0003521940672547529,0.0007598204541764317
0.0007665120068781599,0.00030108401565863007
0.0007250914353528486,0.0008886759173537958
0.00014502648270923015,0.0005733468572485013
0.00024861563008679805,0.0009250799198286049
0.00035218941064187764,0.0005350410940754419
0.0001864545048151419,0.00034540193171491936
0.000517917797210588,0.00040998915229457857
0.0006215064789268684,0.0007392442788645831
0.0006422144363830865,0.00033305864796650533
0.0007665073502652847,7.63046555576402e-05
0.0009736786601011076,0.0004426017405663625
0.0005800602960307432,9.054970000430462e-05
0.0007043764929773177,0.0009576925081003888
0.0009529567328062638,0.00017444929116147072
8.286954838916173e-05,0.0001959702932257067
0.00016573490582673573,0.0001896391623605225
0.00024860212590945984,0.00027321977553573427
0.00033146562070188374,0.00017697690063015413
0.00020717736343256075,0.0006585102531400091
4.143919797681235e-05,0.0003115255387087937
0.0009736809884075453,0.0005549914206168574
0.0007043648514451295,0.00039574410784791415
0.0007043750959934551,0.0008902587000700918
0.0002486151644255105,0.0009026019838185059
0.00010358402510340513,0.0001044757664690147
0.00037291180359800896,0.0008256714794904326
0.00066293077574248,0.0003314758652502093
0.0003314758652502093,0.0006714914928523318
0.0007872409190923166,0.0009064055052150066
0.000497210771076945,0.0008611306552128543
0.00041433144380074527,0.00019312370577506894
0.000787239522108454,0.0008389716971847097
0.0009322469127048957,0.0004907231780191526
0.00029003666727339694,0.0003599659541435381
0.000994401053057239,0.0007332321259813533
6.216904151354406e-05,0.0009618029002853683
0.0004350501114665764,0.0003039306031092678
0.0007043676454128547,0.0005306117239085081
0.0008908146996473962,0.0005163666794618437
0.0005179112779525627,9.529804815319276e-05
6.214948373946803e-05,1.7729587861210847e-05
1.3038516050688231e-08,0.0006293822082827716
0.0002693291754784664,0.0007886295210517149
0.0005179205911783132,0.0005448567683551725
0.0004764958287014141,0.0009301472459594473
0.0006629265847908922,0.0001291744411593184
0.0009943963964443637,0.0005084527658803634
4.1451305170287986e-05,0.0008959518749713674
0.0008908165622925463,0.0006062784235022396
0.00045578088632588316,0.0009991638367060404
0.0007250853817561108,0.000596462749222509
0.0003729145975657341,0.0009605390955510266
0.0003936248833283898,0.0006667431447034437
0.0006422139707217989,0.00031058071195640634
0.0005800616930146058,0.00015798350803460158
0.0006836578253114865,0.0008468856107661899
0.0009944057096701142,0.0009580114860823431
0.0002486091108287727,0.0006103888156872191
0.0007458096373573922,0.0009770048786778957
0.0008908202875828465,0.0007861019115830315
0.0005800714719016438,0.0006300201642466803
0.00016573863111703593,0.0003694626504413144
0.0006422218869636869,0.0006927056241280891
0.0006629368293392178,0.0006236890333814961
0.00020717782909384828,0.0006809881891501081
0.0007665106098942974,0.0002336502076283331
2.0736828456044583e-05,0.0009874464017280594
0.0004143305124781702,0.00014816783375487096
0.00020718108872286095,0.000838333741220801
0.0006422228182862619,0.0007376614961482871
0.0006007952618416377,0.000988084357691968
6.215367469105575e-05,0.00022003101195210172
2.073030919801924e-05,0.0006727552975866735
0.00010359892626460592,0.0008237697187921823
0.0003729066813238462,0.0005784141833793438
0.00026932079357529096,0.00038402667286993315
0.0005593565295261128,0.0006990367549932733
0.0007458026524380793,0.0006398358385264109
0.000103591010022718,0.0004416448066204995
0.0002486165614093731,0.0009700357918488028
0.0009943880145411883,0.00010384991769858166
0.0007457984614864916,0.00043753441443552003
0.00018646055841187972,0.0006376150998462062
0.0008908058520829332,8.928589526996291e-05
0.0009529651147094393,0.0005790521393432525
0.0007665208544426229,0.0007281647998505108
0.00047649722568527666,0.0009975810539897443
0.0005179215225008882,0.0005898126403753705
0.0004557631911969572,0.00014500226832227887
0.0008700992916105777,0.0005629053341983377
0.00024860398855460993,0.0003631315195761302
0.0009322511036564834,0.0006930246021100434
6.215739998135595e-05,0.0003998545000328936
0.0006422107110927863,0.00015323515988571344
0.0006215013566527056,0.0004919869827534943
0.0007458077747122421,0.0008870931346374998
0.000725080259481948,0.00034920545311142013
0.0008493852805576219,0.0006768777969651286
0.0009736814540688328,0.0005774693566269564
0.00037290575000127114,0.0005334583113591458
0.0003729141319044466,0.0009380611595409276
0.0006007808263417244,0.00029126834137889945
0.0006836410615051356,3.7679914402626415e-05
2.3283064376228985e-09,0.00011238968005049493
0.0008908105086958085,0.0003140652553709528
0.0008908067834055083,0.00013424176729016088
0.0006214915777656676,1.9950326541415568e-05
0.0006629363636779303,0.0006012110973713971
0.00043505709638588927,0.0006410996432607526
0.00026933010680104145,0.0008335853930719129
0.000497200060867332,0.00034413812698057765
0.0009322389964630078,0.0001085982658474698
2.0728912214156665e-05,0.0006053214895563766
0.000911527779377777,0.0003574383446748547
0.0008493768986544464,0.0002722749487833469
0.0007043760273160301,0.0009352145720902898
0.0002486128361190729,0.000790212303768011
0.0008286656815692157,0.0005211150276107318
0.0004350459205149887,0.00010162917901837694
8.28746706633245e-05,0.00044322758933679554
0.0007665101442330098,0.00021117227161823412
0.00020717922607771085,0.0007484219971804051
0.00012430083012408616,0.00012537091976281764
0.0003521828913838523,0.00022034998993405606
0.0008908244785344342,0.0009884033356739224
6.216485056195634e-05,0.0007595014761944774
0.0002693235875430161,0.0005188942889305271
0.0005593523385745251,0.0004967353309023824
0.0004971977325608943,0.00023174844693008272
0.0006629284474360423,0.00021908618519971435
0.0002278829925823412,0.0001399349421914364
0.0007665092129104348,0.00016621639959803615
0.00016574654735892385,0.0007515875626129972
0.0005593569951874004,0.0007215146910033723
0.0001657381654557484,0.0003469847144312154
0.00091153662694224,0.0007845191288667354
0.00031075114398764034,0.0002684714273868461
8.286675442143658e-05,6.110267716511277e-05
0.00045577343574528277,0.0006395168605444566
0.0009529660460320143,0.0006240080113634504
0.0009115380239261026,0.0008519529368970324
0.00029003899557983456,0.00047235563419403305
0.00012430408975309883,0.00028271647183351054
0.0005800686779339186,0.0004951525481860864
0.0009322483096887582,0.0005581569860494495
0.0004971991295447569,0.0002991822549603797
0.0008493810896060341,0.00047457637287423777
0.0007458035837606544,0.0006847917105466089
0.0002278983594048295,0.0008817068305247029
0.0003107525409715029,0.0003359052354171431
6.216252225551872e-05,0.0006471117961439825
0.0007458082403735296,0.0009095710706475987
0.00033146375805673364,8.706515658975819e-05
0.0005593621174615631,0.0009687719871144611
0.0009322408591081579,0.00019851000988786575
0.00035218987630316516,0.0005575190300855409
0.00029002968235408407,2.2796913992053323e-05
0.00026932032791400344,0.00036154873685983416
0.0009322417904307329,0.00024346588190806372
0.0003107637168424035,0.0008753756996595188
0.0004350631499826271,0.0009333128113920394
0.0009115315046680772,0.0005372618327556466
0.0006422274748991371,0.000962440856249277
0.0007457924078897538,0.0001453212463042332
0.0008908128370022461,0.0004264549354214477
0.0009736712095205072,8.295476440477872e-05
0.0003936141731187767,0.000149750616471167
0.000994392205492776,0.00030615134178947254
0.0005386443811183071,0.0009029209618004602
0.0005179257134524759,0.0007921140644662613
0.0004972121680608076,0.0009285644632431513
0.0001243092120272616,0.0005299737679445994
0.0004557739014065703,0.0006619947965545556
0.00047648185886278835,0.00025580916565647776
0.0009529669773545894,0.0006689638833836484
0.000890811905679671,0.00038149906340124973
0.0005386397245054318,0.0006781416016994704
0.0009529534731772512,1.7103739090777812e-05
0.000248604919877185,0.0004080873915963282
0.0006215027536365682,0.0005594207907837912
0.0008908095773732334,0.0002691093833507548
0.0004557725044227077,0.0005945609885242586
0.0008079535331614099,0.0007249992344179187
0.0002693175339462783,0.00022668112079924025
0.0009736819197301203,0.0005999472926370554
0.0007043597291709668,0.0001484868117368253
2.0721461633556272e-05,0.0002456745133947928
0.00016574328772991117,0.0005942420105423043
0.00012431060901112417,0.0005974075759748964
0.00022788066427590356,2.7545262140941463e-05
0.0009322548289467836,0.0008728480901908353
0.0007665245797329231,0.0009079882879313027
0.000476484187169226,0.0003681988457069727
2.793967725147478e-09,0.00013486761606059392
0.0005179299044040637,0.0009944154885571522
0.00047649350039497647,0.0008177575659089524
0.000124316662607862,0.0008896207441061832
0.0005386359992151316,0.0004983181136186785
0.000497201923512482,0.0004340498710209736
0.00012431712826914952,0.0009120986801162822
0.0005179140719202878,0.00023016566421378668
6.215553733620585e-05,0.00030994275599249767
0.000911537558264815,0.0008294750008869334
0.00041434774194580863,0.0009798514661285335
0.0008286745291336787,0.0009481958118026125
0.00097367633179467,0.0003302120605158676
2.0717736343256075e-05,6.585102531400091e-05
0.0005386332052474065,0.00036345049755808455
0.0009529539388385387,3.95816751008768e-05
0.00033146934599218394,0.000356800388710946
0.0005179201255170256,0.0005223788323450735
4.143314438007453e-05,1.9312370577506894e-05
0.00029003294198309674,0.00018014246606274623
0.0001243017614466612,0.0001703267917830156
2.0720064649693698e-05,0.00017824070536449584
0.0002693142743172656,6.933556872854734e-05
0.0001035872847324178,0.0002618213185397076
0.0003936253489896773,0.0006892210807135427
0.0005386299456183938,0.00020610494548739164
0.000973685179359133,0.0007572928447077483
0.0005386462437634572,0.0009928327058408562
0.0007250895727076985,0.0007987641733133999
0.0007665064189427096,3.134878353744223e-05
0.00016574701302021137,0.0007740654986230962
0.0008493745703480088,0.00015988526873285196
0.00031076418250369103,0.0008978536356696177
0.0006629298444199049,0.0002865199932300113
0.00024861190479649785,0.000745256431747813
0.0002071708441745354,0.0003438191489986233
0.0008701067421911781,0.0009225523103599215
0.0001450348646124056,0.000977949705430283
0.0004764902407659638,0.0006604120138382595
0.00022788811485650396,0.00038719223830252524
0.00031074741869734014,8.864793930605424e-05
0.0009322380651404327,6.364239382727183e-05
0.0009943884802024758,0.00012632785370868065
0.0006214953030559678,0.00019977381462220746
0.0002486067825223351,0.0004979991356367241
0.00018644984820226666,0.0001206225716139295
0.0007665143351845976,0.000413473695709125
0.0004143472762845211,0.0009573735301184345
0.00018645543613771695,0.00039035780373511734
0.0007458017211155043,0.0005948799665062129
0.00022788485522749129,0.00022984668623183234
0.0009322497066726208,0.0006255907940797465
0.0009115291763616396,0.00042487215270515166
0.000890810974357096,0.00033654319138105176
0.0008700876500783896,9.569339458630113e-07
0.00047648930944338874,0.0006154561418180615
0.0006422195586572492,0.0005803159440775942
0.00020717130983582293,0.0003662970850087223
0.00041434448231679596,0.0008225059140578406
0.00022789696242096692,0.000814273022494406
0.0006215092728945935,0.000874111894925177
0.0007458073090509546,0.0008646151986274008
0.00012430036446279863,0.00010289298375271865
0.000870104879546028,0.0008326405663195255
0.0008286600936337654,0.00025137979548954395
0.00018646148973445477,0.0006825709718664042
0.0002693333664300541,0.0009909309451426058
0.00041433330644589537,0.0002830354498154649
0.00039362069237680207,0.0004644417206125528
0.00022789370279195425,0.0006569274704237131
0.00020716432491651006,2.912804485723751e-05
0.00020718295136801105,0.000928245485261197
0.0009115352299583774,0.0007170853208364385
0.0004764785992337757,9.846361358578485e-05
0.0001864489168796916,7.566669959373153e-05
0.00047649536304012656,0.0009076693099493484
0.0005179117436138502,0.00011777598416329174
4.144897686385036e-05,0.0007835621949208724
0.00016575027264922404,0.0009314110506937891
0.0004557669164872574,0.00032482575640307076
0.0008286633532627781,0.00040872534756023686
0.0008493848148963343,0.0006543998609550297
0.0004764772022499131,3.102980555548789e-05
0.00018645171084741676,0.00021053431565432545
0.0004557608628905196,3.261258827178394e-05
0.0001450218260963549,0.00034856749714751146
0.0009322506379951959,0.0006705466660999445
0.0005800747315306564,0.0007873657163173732
0.0006629377606617928,0.0006686449054016941
0.0009736721408430823,0.0001279106364249767
2.072425560128142e-05,0.0003805421294553867
0.0006836517717147487,0.0005546724426349031
1.1641532188114492e-08,0.0005619484002524747
0.0009943875488799007,8.137198168848268e-05
0.0002486133017803604,0.0008126902397781099
0.0001864675433311926,0.000974784139997691
0.0002279002220499796,0.0009716185745650989
0.0008700913753686898,0.0001807804220266549
0.0006422153677056615,0.0003780145199867033
0.00010358309378083008,5.951989444881673e-05
0.0005593607204777006,0.0009013381790841642
0.0009943949994605011,0.00044101895785006646
0.0006215041506204308,0.0006268545988140882
2.0729843536731714e-05,0.0006502773615765746
0.0004557776266968705,0.0008418182846353474
0.0008079577241129976,0.0009273006585088096
0.000186456367460292,0.0004353136757553153
0.0007872376594633039,0.0007490599531443137
8.288351822778746e-05,0.0008703083735286763
0.0009115259167326269,0.00026752660063445875
5.122274162770377e-09,0.00024725729611108885
6.216065961036862e-05,0.0005572000521035865
0.0004143337721071829,0.00030551338582556387
0.000807944685596947,0.00029791845022603797
0.0005179103466299876,5.0342176132994786e-05
0.0007250769998529353,0.00019185990104072723
0.00016573537148802326,0.0002121170983706215
0.00014503393328983054,0.0009329938334100851
0.00014503160498339292,0.0008206041533595902
0.0007665231827490605,0.0008405544799010057
0.0009529599924352765,0.0003317948432321636
0.00026931706828499076,0.00020420318478914126
0.00037290202471097094,0.00035363482327835393
0.00037289690243680817,0.00010637752716726508
0.0002693254501881662,0.000608806032970923
0.0006007757040675616,4.40110452678106e-05
0.0003314740026050592,0.0005815797488119359
0.0005800756628532315,0.0008323215883375712
0.0008493815552673217,0.0004970543088843368
0.0002278946341145293,0.000701883342443911
0.00020718155438414847,0.0008608116772309
0.0002486170270706606,0.0009925137278589018
0.0008079581897742852,0.0009497785945189086
0.0008701044138847405,0.0008101626303094265
0.00012430967768854912,0.0005524517039546984
0.000580066349627481,0.00038276286813559144
0.0001657363028105983,0.00025707297039081946
0.0003521852196902899,0.000332739669984551
0.0005386322739248314,0.0003184946255378866
0.0008493890058479221,0.0008567012850459205
0.0007457998584703542,0.000504968222465817
0.00012430502107567388,0.0003276723438537085
0.00016574608169763632,0.0007291096266028982
0.0004557650538421073,0.00023491401236267482
0.00029003527028953436,0.00029253214611324116
0.0009115207944584642,2.0269304523369905e-05
0.00018646521502475497,0.000862394459947196
0.0009115324359906523,0.0005822177047758446
0.0007665189917974728,0.0006382530558101149
0.0005800710062403563,0.0006075422282365813
0.0003936234863445272,0.0005993093366731467
6.216159093294367e-05,0.0006021559241237845
0.0006836438554728608,0.00017254753046322033
0.00016574142508476108,0.0005043302665019083
0.0008908170279538338,0.0006287563595123386
0.0001450162381609046,7.883226502632362e-05
0.0006422270092378496,0.000939962920239178
0.00018645031386355418,0.0001431005076240285
0.000683657359650199,0.0008244076747560909
0.0008286694068595159,0.0007009385156915237
0.0009115273137164895,0.0003349604086647557
2.0734034488319435e-05,0.0008525787856674654
1.490116120078655e-08,0.0007192939523231676
0.0005593611861389881,0.0009238161150942632
0.000145023688741505,0.0004384792411879074
0.00012431619694657447,0.0008671428080960842
0.00010358775039370533,0.0002842992545498066
0.00031076092287467836,0.0007405080835989248
0.00014503253630596797,0.0008655600253797881
0.0003314744682663467,0.0006040576848220349
0.0007043601948322543,0.0001709647477469243
0.000600782223325587,0.0003587021494091964
0.0007043667140902796,0.0004856558518883101
0.00012430781504339902,0.00046253995991430243
0.0005386439154570195,0.0008804430257903612
0.0003107655794875536,0.0009652874436999147
2.0734965810894485e-05,0.0008975346576876634
1.396983862573739e-08,0.0006743380803029696
0.0002900301480153716,4.527485000215231e-05
0.0005386276173119562,9.371526543689671e-05
0.0006007887425836123,0.0006733932535505822
0.000994394068137926,0.0003960630858298685
0.00014502694837051767,0.0005958247932586003
0.0007043681110741422,0.000553089659918607
0.0007872371938020164,0.0007265820171342148
0.00010358868171628038,0.00032925512657000456
0.0008079437542743719,0.00025296257820584
2.0719598988406173e-05,0.00015576276935439686
0.000517927576097626,0.0008820258085066573
0.00035218242572256477,0.00019787205392395707
0.00012431433430142437,0.0007772310640556882
0.00035218754799672754,0.0004451293500350459
0.00022789416845324178,0.0006794054064338121
0.00018645590179900448,0.0004128357397452163
0.0007458049807445169,0.0007522255185769058
0.0007043709050418674,0.000687957275979201
0.00029004085822498466,0.000562267378234429
0.0002486053855384725,0.00043056532760642717
0.0006836461837792984,0.00028493721051371526
0.00020716572190037264,9.656185288753447e-05
0.0006836592222953491,0.0009143194187964869
0.000621508807233306,0.0008516339589150781
0.000393619761054227,0.00041948584859235485
0.0007250923666754236,0.0009336317893739938
0.00010360032324846849,0.0008912035268224792
0.000600792002212625,0.0008307388056212751
0.0009943991904120889,0.0006433203819409573
0.0007043695080580048,0.000620523467948904
0.0003107576632456657,0.0005831625315282319
0.0008493876088640595,0.0007892674770156236
0.0004972005265286195,0.00036661606299067664
0.0001657512039717991,0.000976366922713987
0.00035218382270642734,0.00026530586195425403
0.0003107599915521033,0.0006955522115787269
1.9092112788507767e-08,0.0009215953764140584
0.0005593434910100622,6.965454671050168e-05
0.00039362208936066464,0.0005318755286428498
0.0008286568340047527,9.403424341885105e-05
6.519258025344116e-09,0.0003146911041413858
0.0009115249854100519,0.00022257072861426078
0.00039362255502195216,0.0005543534646529488
0.0005593425596874871,2.4698674690303707e-05
0.0009322413247694454,0.00022098794589796474
0.0003314632923954461,6.45872205796592e-05
0.0005593514072519501,0.00045177945888218445
0.0004971981982221819,0.0002542263829401817
2.0725652585143993e-05,0.0004479759374856837
0.00022789044316294158,0.0004995819183530202
0.00018645729878286705,0.0004802695477755133
0.0009322492410113333,0.0006031128580696475
0.0006629261191296047,0.00010669650514921942
0.0008700909097074023,0.00015830248601655592
0.0006629372950005053,0.0006461669693915951
0.0005800789224822442,0.000989667140408264
0.0004972028548350571,0.00047900574304117157
0.000994401984379814,0.0007781879980015513
0.00012430455541438635,0.00030519440784360953
0.0009115231227649018,0.00013265898457386484
0.0003729048186786961,0.0004885024393389479
0.0005179191941944506,0.0004774229603248755
0.0003521982582063406,0.0009621218782673226
0.0002900357359508219,0.00031501008212334015
0.000600783154648162,0.0004036580214293944
0.0006836536343598988,0.000644584186675299
0.0003314684146696089,0.00031184451669074805
0.000890820753244134,0.0008085798475931305
0.0009529609237578516,0.0003767507152523616
0.0002071652562390851,7.408391687743548e-05
0.00010359054436143047,0.0004191668706104005
0.0007872274149149784,0.00025454536092213605
0.000870094169336415,0.0003156480380872488
0.00016574794434278642,0.0008190213706432941
0.0006836550313437614,0.000712017994705596
0.0006215018223139932,0.0005144649187635933
0.0007665110755555849,0.0002561281436384321
0.0006836443211341483,0.00019502546647331932
0.0009736767974559575,0.00035268999652596656
0.00022789929072740455,0.0009266627025449009
0.0007250919010141361,0.0009111538533638948
0.0008493838835737593,0.0006094439889348317
0.00012430828070468655,0.0004850178959244014
0.0004971940072705941,5.192495884929083e-05
0.0003728992307432458,0.00021876720721776001
0.000683648512085736,0.0003973268905642102
0.000642224680931412,0.000827573240188683
0.0007872325371891412,0.0005018026570332249
6.216345357809377e-05,0.0006920676681641804
0.0003936272116348274,0.0007791328247539386
0.0009115296420229271,0.00044735008871525065
0.0008493824865898967,0.0005420101809045347
0.000932244584398458,0.00037833349796865764
0.0002278815955984786,7.250113416113944e-05
0.0006215106698784561,0.000941545702955474
0.00043504964580528887,0.00028145266709916883
0.00043506268432133956,0.0009108348753819405
0.0003107506783263528,0.00024599349137674714
0.00037290388735612104,0.0004435465673187499
0.00020718062306157342,0.000815855805210702
0.0008079400289840717,7.313909012504811e-05
0.0005386429841344445,0.0008354871537701633
0.0008908184249376964,0.0006961901675426355
0.000662931707065055,0.00037643173727040726
1.676380635088487e-08,0.0008092056963635635
0.00033147307128248414,0.0005366238767917379
0.0006422172303508116,0.00046792626402709925
0.00043506408130520213,0.0009782686834122374
0.0008286735978111036,0.0009032399397824146
0.0009529590611127015,0.00028683897121196565
0.0007665203887813354,0.0007056868638404118
0.0008908156309699712,0.0005613225514820416
0.0002693268471720288,0.00067623984100122
0.0006422130393992239,0.00026562483993620837
0.00018646428370217992,0.0008174385879269981
0.0004143398257039207,0.0005977265539568507
0.0005800719375629313,0.0006524981002567793
0.00035218801365801506,0.0004676072860451449
0.0008700932380138399,0.00027069216606705085
0.0005179229194847508,0.0006572464484056674
0.00012430641805953645,0.0003951061518840055
0.00041433284078460785,0.0002605575138053659
0.0009736740034882324,0.00021782238046537264
0.0005179154689041504,0.00029759947224408364
0.0008286740634723911,0.0009257178757925135
0.0006422200243185368,0.0006027938800876932
0.0009529697713223145,0.0008038314994442423
4.143733533166225e-05,0.00022161379466839777
0.00010358961303885542,0.00037421099859020254
6.215041506204308e-05,6.268545988140882e-05
0.0009944015187185265,0.0007557100619914523
4.1445251573550166e-05,0.0006037387068400805
0.0008701053452073156,0.0008551185023296245
0.00024859886628044716,0.00011587422346504136
0.00033146422371802117,0.00010954309259985718
0.0005593481476229374,0.00029443390681149154
8.287327367946192e-05,0.0003757937813064986
8.28690827278742e-05,0.0001734923572156077
0.00045576831347112,0.0003922595644333677
0.0006836452524567234,0.0002399813384935173
0.0005179187285331631,0.00045494502431477654
0.0009736856450204205,0.0007797707807178473
0.00022788671787264138,0.0003197584302722283
0.0008908212189054215,0.0008310577836032295
0.00014501949778991728,0.00023617781709701652
0.0006422083827863486,4.084547983521851e-05
0.000725090038368986,0.0008212421093234988
0.0007872357968181538,0.0006591482091039178
0.0002900343389669593,0.0002475762740930432
6.216764452968149e-05,0.0008943690922550713
0.0008908081803893709,0.00020167557532045784
0.00010359985758718097,0.0008687255908123802
0.00014501484117704203,1.1398456996026662e-05
0.0007872260179311158,0.0001871115528918391
0.00070437416467088,0.0008453028280498939
2.072937787544419e-05,0.0006277994255664756
0.00043506082167618946,0.0008209231313415445
0.0006836424584889982,0.00010511372243292337
2.0732171843169337e-05,0.0007626670416270695
0.00024861143913521033,0.000722778495737714
0.0004557794893420206,0.0009317300286757434
0.0009115342986358024,0.0006721294488162405
0.0008079395633227842,5.066115411494912e-05
0.00076651386952331,0.000390995759699026
0.0008493787612995965,0.00036218669282374284
0.000725081190804523,0.0003941613251316181
0.0009736716751817948,0.00010543270041487771
0.0008701081391750407,0.0009899861183902184
0.00026932591584945373,0.000631283968981022
0.0006629247221457421,3.926269711892246e-05
0.0009322515693177709,0.0007155025381201424
0.0007458021867767918,0.0006173579025163119
0.00026932219055915353,0.0004514604809002301
6.21546060136308e-05,0.0002649868839722997
0.0008493904028317846,0.0009241350930762175
0.0003936216236993771,0.0005093975926327508
0.0002693198622527159,0.0003390708008497352
0.0004764767365886256,8.551869545388906e-06
0.0008700927723525524,0.00024821423005695186
0.00033147493392763423,0.0006265356208321339
0.00022788625221135386,0.0002972804942621293
0.0007457942705349039,0.00023523299034462915
0.0003107595258908158,0.0006730742755686279
0.0006422232839475494,0.0007601394321583861
0.0007872418504148917,0.0009513613772352046
8.288398388907499e-05,0.0008927863095387753
1.396983862573739e-09,6.743380803029696e-05
6.2158331303931e-05,0.0004448103720530916
0.0005386313426022564,0.0002735387535176886
6.216112527165614e-05,0.0005796779881136855
0.0002900450491765724,0.0007645688023253199
0.0002693179996075658,0.00024915905680933923
0.0005179243164686134,0.0007246802564359644
6.216857585225654e-05,0.0009393249642752693
0.0004557687791324075,0.0004147375004434667
0.0009944024500411015,0.0008006659340116502
0.0007872320715278536,0.0004793247210231259
0.00026931660262370324,0.00018172524877904227
0.0005800626243371808,0.00020293938005479955
0.0005593444223326372,0.00011461041873069965
0.000559350475929375,0.0004068235868619865
0.0006214985626849805,0.00035711936669290036
0.00010359799494203087,0.0007788138467719843
0.0007250830534496731,0.00048407306917201405
0.00039362441766710226,0.0006442652086933447
0.0008493913341543597,0.0009690909650964155
6.21508807233306e-05,8.51633958915078e-05
0.0001864619553957423,0.0007050489078765031
0.00047648791245952617,0.0005480223337877646
0.0008079516705162598,0.0006350874903775228
0.0006007794293578618,0.0002238345333486025
0.0009115287107003521,0.00040239421669505267
0.000849387143202772,0.0007667895410055246
0.0002693231218817286,0.0004964163529204281
0.0004764888437821012,0.0005929782058079626
0.00012430595239824893,0.0003726282158739065
0.0006007789636965743,0.0002013565973385035
0.0001035854220872677,0.00017190957449931166
0.00043505337109558907,0.0004612761551799607
0.0005179285074202011,0.0009269816805268553
0.0005593430253487746,4.717661070040269e-05
0.0006007896739061874,0.0007183491255707802
0.0008908063177442208,0.0001117638312800619
0.00022789509977581683,0.00072436127845401
0.00020717363814226055,0.00047868676505921724
0.00026932638151074125,0.000653761904991121
0.0007458003241316417,0.000527446158475916
0.0001864582301054421,0.0005252254197957113
0.0009529730309513272,0.0009611770515149352
0.0006836471151018735,0.00032989308253391324
0.0005593462849777873,0.0002045221627710956
0.0004557645881808198,0.00021243607635257583
2.073543147218201e-05,0.0009200125936977624
0.0006215083415720185,0.0008291560229049791
0.0005800724032242188,0.0006749760362668783
0.00020717224115839798,0.0004112529570289203
0.0007250839847722482,0.000529028941192212
0.0007457919422284662,0.00012284331029413422
0.0002486123704577854,0.000767734367757912
0.0002071838826905861,0.0009732013572813949
0.0006215036849591433,0.0006043766628039892
0.0009529576641288389,0.0002194051631816687
0.00037290947529157134,0.0007132817994399377
0.0008701020855783029,0.0006977729502589316
0.0008700974289654276,0.0004729935901579417
0.00026932451886559116,0.000563850160950725
0.000435052439773014,0.00041632028315976275
0.0007043620574774044,0.00026087649178732023
0.0004143300468168827,0.00012568989774477198
0.00020716665322294769,0.00014151772490773244
0.0007872306745439911,0.00041189091299282895
0.0008286661472305032,0.0005435929636208308
0.00033148052186308453,0.0008962708529533217
0.0009115347642970899,0.0006946073848263395
0.00010358216245825503,1.4564022428618754e-05
0.00010359147568400552,0.0004641227426305985
0.0008493917998156472,0.0009915689011065145
0.00029004644616043495,0.0008320026103556168
8.287513632461202e-05,0.00046570552534689453
0.0002278834582436287,0.00016241287820153538
0.0007043723020257299,0.0007553910840094979
0.0007872236896246782,7.472187284134416e-05
0.0009736749348108074,0.0002627782524855706
0.000890810043034521,0.0002915873193608538
0.0003314688803308964,0.00033432245270084704
0.0009943936024766386,0.0003735851498197695
0.0006007850172933121,0.0004935697654697903
0.0006422279405604247,0.000984918792259376
0.00020718341702929857,0.000950723421271296
0.0009529562671449763,0.00015197135515137173
0.0002486086451674852,0.0005879108796771201
0.0004972047174802072,0.0005689174870815675
0.0007458063777283795,0.0008196593266072028
0.00043505895903103936,0.0007310113873011486
0.0009736884389881456,0.0009146383967784412
0.0009943968621056512,0.0005309307018904624
0.0004557743670678578,0.0006844727325646545
0.0009736791257623952,0.0004650796765764615
0.00012431759393043704,0.0009345766161263811
0.0009943977934282263,0.0005758865739106604
0.0003107520753102154,0.0003134272994070441
0.0009322459813823206,0.0004457673059989546
0.0004143379630587706,0.0005078148099164547
0.0007665199231200479,0.0006832089278303128
0.00039361882973165197,0.00037452997657215687
8.287932727619974e-05,0.0006680069494377854
0.000414345413639371,0.0008674617860780385
0.0008493731733641462,9.2451460702555e-05
0.00022789137448551663,0.0005445377903732181
0.0009736698125366447,1.5520956374481766e-05
0.0005593532698971002,0.0005416912029225804
0.0005593476819616499,0.00027195597080139256
0.0006629251878070297,6.174063312902145e-05
0.00033147353694377166,0.0005591018128018369
8.286768574401163e-05,0.00010605854918531075
0.00024860957649006023,0.000632866751697318
0.0006007761697288492,6.648898127790959e-05
0.00047647999621763825,0.0001658974216160818
0.0007250849160948232,0.00057398481321241
0.0002693329007687666,0.0009684530091325068
0.0007665222514264855,0.0007955986078808078
0.00018644845121840409,5.318876358363254e-05
0.00047648744679823865,0.0005255443977776656
0.0008079404946453592,9.56170261351471e-05
0.00035219360159346536,0.0007373425181663327
0.0008908230815505716,0.0009209695276436254
0.0007250742058852102,5.699228498013331e-05
0.000725089107046411,0.0007762862373033009
0.0006629442799198182,0.0009833360095430799
8.286815140529915e-05,0.00012853648519540973
2.0735897133469534e-05,0.0009424905297078614
0.0002693161369624157,0.0001592473127689433
0.00029004830880558505,0.0009219143543960128
0.0006422265435765621,0.000917484984229079
0.0009115245197487644,0.0002000927926041618
0.0008493885401866345,0.0008342233490358216
0.00022788252692105366,0.00011745700618133741
0.00014501763514476718,0.00014626607305662058
0.0005386378618602817,0.0005882298576590744
0.0004557603972292321,1.0134652261684952e-05
0.0005800640213210434,0.0002703731880850965
0.0004557720387614202,0.0005720830525141596
0.0003107581289069532,0.0006056404675383309
0.0007665241140716356,0.0008855103519212037
0.00018646102407316725,0.0006600930358563052
0.00016575166963308662,0.000998844858724086
0.00041433470342975794,0.00035046925784576184
0.0009943973277669388,0.0005534086379005614
0.00045576365685824475,0.00016748020433237786
0.0009322431874145955,0.0003108996899383607
7.450580600393275e-09,0.0003596469761615838
0.0003107651138262661,0.0009428095076898157
0.0002900399269024096,0.000517311506214231
0.00016574282206862365,0.0005717640745322053
0.00016573723413317335,0.00030202884241101744
0.00035218009741612715,8.548237387346214e-05
0.0009736758661333825,0.0003077341245057686
0.0009529707026448896,0.0008487873714644403
0.0007665096785717223,0.00018869433560813513
0.0003521833570451398,0.00024282792594415505
0.0009529665116933018,0.0006464859473735494
0.0009529558014836888,0.00012949341914127274
6.984919312868695e-09,0.0003371690401514848
0.0002693138086559781,4.6857632718448356e-05
0.0005179289730814886,0.0009494596165369542
0.0006422093141089237,8.580135185541648e-05
4.144478591226264e-05,0.0005812607708299816
0.0008493908684930722,0.0009466130290863165
0.00018646474936346745,0.0008399165239370971
0.00010359846060331839,0.0008012917827820833
0.0007043653171064171,0.00041822204385801314
0.0009115333673132273,0.0006271735767960425
0.0007872330028504287,0.0005242805930433239
0.0007665255110554982,0.0009529441599515007
8.288258690521241e-05,0.0008253525015084783
0.0001450274140318052,0.0006183027292686993
0.0008079591210968602,0.0009947344665391065
0.00037290249037225847,0.0003761127592884529
0.00014502042911249233,0.0002811336891172145
0.00012430269276923625,0.00021528266380321359
0.000310754403616653,0.00042581697945753903
0.0009529613894191391,0.0003992286512624606
0.0004971995952060444,0.00032166019097047867
0.0006836489777470236,0.0004198048265743092
0.000621507875910731,0.0008066780868948801
0.0003521847540290024,0.000310261733974452
0.0006007924678739125,0.0008532167416313741
0.0005800630899984683,0.00022541731606489854
0.000932253431962921,0.0008054142821605384
0.00024860026326430974,0.00018330803149533832
8.287560198589955e-05,0.0004881834613569935
0.00045577902368073306,0.0009092520926656444
0.00039362628031225236,0.0007341769527337407
0.0009115310390067897,0.0005147838967455476
0.0006422102454314987,0.00013075722387561445
0.0003729122692592965,0.0008481494155005316
0.0005179271104363385,0.0008595478724965583
0.0008701076735137532,0.0009675081823801194
3.259629012672058e-09,0.0001573455520706929
0.0005179280417589136,0.0009045037445167563
0.00016573164619772306,3.22936102898296e-05
0.000994391274170201,0.00026119546976927457
0.0006629428829359556,0.0009159022015127829
0.0006007771010514242,0.00011144485329810756
0.00037290621566255866,0.0005559362473692448
4.144757987998779e-05,0.0007161283868905755
0.0008700890470622522,6.839074197615997e-05
0.0008700885814009647,4.5912805966060984e-05
0.0007872427817374667,0.0009963172492554026
0.000476493966056264,0.0008402355019190514
0.0004764883781208137,0.0005705002697978636
0.0008493741046867213,0.00013740733272275298
0.00043504545485370115,7.915124300827796e-05
0.000704373233348305,0.0008003469560296959
0.0008079521361775473,0.0006575654263876218
0.0002900394612411221,0.000494833570204132
0.00022789603109839188,0.000769317150474208
0.0006007817576642995,0.0003362242133990974
0.000497200992189907,0.00038909399900077563
6.215227770719318e-05,0.00015259720392180477
0.000911526848055202,0.0003124824726546567
0.00012431573128528694,0.0008446648720859852
0.0009529734966126147,0.0009836549875250342
0.0009736702781979322,3.799889238458075e-05
0.0004764804618789258,0.0001883753576261808
0.00010358262811954256,3.704195843871774e-05
0.0003936137074574892,0.00012727268046106802
0.00026933196944619155,0.0009234971371123088
0.0007043578665258167,5.8575067696429355e-05
0.00039362814295740246,0.0008240886967741366
0.0006422167646895241,0.00044544832801700026
6.215414035234327e-05,0.0002425089479622007
0.00024859700363529707,2.5962479424645416e-05
4.144432025097512e-05,0.0005587828348198826
0.0005386257546668061,3.803521396500767e-06
0.0008079526018388349,0.0006800433623977207
0.0005179108122912752,7.282011214309377e-05
6.216438490066882e-05,0.0007370235401843784
0.0006629433485972431,0.0009383801375228819
0.00031075533493922806,0.000470772851477737
0.0006836419928277107,8.263578642282439e-05
0.0003936304712638401,0.0009364783768246315
0.0007665185261361853,0.0006157751198000159
0.0005800742658693689,0.0007648877803072742
0.00039362767729611494,0.0008016107607640376
8.381903175442434e-09,0.00040460284818178175
0.00035219499857732793,0.0008047763261966297
0.000642223749608837,0.0007826173681684851
0.00047647953055635073,0.00014341948560598282
0.00043505663072460174,0.0006186217072506536
0.00020717410380354808,0.0005011647010693162
0.0005179159345654379,0.0003200774082541826
0.00018646661200861754,0.000929828267977493
0.0007665166634910352,0.0005258633757596199
0.00029004225520884723,0.000629701186264726
0.00020716991285196036,0.00029886327697842534
0.0009736777287785326,0.00039764586854616453
6.215320902976823e-05,0.00019755307594200274
0.00041433703173619557,0.00046285893789625677
2.0718667665831124e-05,0.00011080689733419889
0.0009943908085089134,0.00023871753375917558
0.0009943917398314885,0.00028367340577937356
0.0007250779311755104,0.0002368157730609252
0.0004557706417775576,0.0005046492444838627
0.00012429943314022358,5.793711173252068e-05
0.0008700988259492902,0.0005404273981882387
0.0003729052843399836,0.0005109803753490468
6.21601939490811e-05,0.0005347221160934875
0.00016573211185901058,5.477154629992859e-05
0.00031075719758437816,0.000560684595518133
0.0009322403934468703,0.00017603207387776676
0.0008079428229517968,0.00020800670618564203
0.0003107618541972534,0.0007854639556191228
4.14345413639371e-05,8.674617860780385e-05
6.216391923938129e-05,0.0007145456041742794
0.0008908091117119459,0.0002466314473406558
0.0009529585954514139,0.00026436103520186666
0.0008079474795646721,0.0004327860662866319
0.00010359752928074334,0.0007563359107618853
0.00041433842872005814,0.0005302927459265537
0.0007665068846039972,5.3826719547541216e-05
0.00016574421905248622,0.0006391978825625022
0.0008286591623111903,0.00020642392346934598
0.0003936178984090769,0.0003295741045519589
0.00014501716948347966,0.0001237881370465216
0.000331480056201797,0.0008737929169432227
0.0009322422560920204,0.0002659438179181627
0.0003314814531856596,0.0009412267249735197
2.073263750445686e-05,0.0007851449776371685
0.00033147539958892176,0.0006490135568422328
0.0005593495446068,0.0003618677148417885
0.0009736837823752704,0.0006898590366774514
0.0006422181616733867,0.0005128821360472972
0.0006836545656824739,0.000689540058695497
0.00041434075702649576,0.0006426824259770487
0.00045577855801944554,0.0008867741566555454
0.0005179145375815754,0.00025264360022388566
0.00010359706361945582,0.0007338579747517863
0.0005800700749177812,0.0005625863562163833
0.0009943861518960382,1.393817365818572e-05
0.00035218708233544,0.00042265141402494694
0.0003521922046096028,0.0006699087101360358
0.0007250881757238359,0.0007313303652831029
0.00047648977510467627,0.0006379340778281605
0.00016575073831051157,0.000953888986703888
0.0008286563683434652,7.155630740875206e-05
0.0006422121080766488,0.0002206689679160104
0.0005386294799571063,0.00018362700947729266
0.00033146236107287107,1.963134855946123e-05
0.0003729010933883959,0.00030867895125815596
0.00045577297008399524,0.0006170389245343576
0.0007250932979979987,0.0009785876613941917
0.0004350463861762762,0.00012410711502847593
0.0005386453124408821,0.0009478768338206582
0.0006214929747495302,8.738413457171253e-05
0.0008493736390254338,0.00011492939671265399
0.0005593467506390748,0.00022700009878119458
0.0007665194574587603,0.0006607309918202138
0.0004764925690724014,0.0007728016938887544
0.0006422135050605114,0.00028810277594630736
0.0009736889046494332,0.0009371163327885402
0.0001035928726678681,0.0005315565506608954
0.0008493759673318714,0.00022731907676314892
0.0005593551325422503,0.0006316029469629763
0.00035219732688376556,0.0009171660062471246
4.1441991944537494e-05,0.00044639315476938763
0.00045577110743884514,0.0005271271804939616
0.0002278964967596794,0.000791795086484307
0.0002693156713011282,0.0001367693767588443
0.0009736847136978454,0.0007348149086976493
0.0007872278805762659,0.00027702329693223503
0.00022788438956620376,0.00020736875022173335
0.0004764921034111139,0.0007503237578786555
0.0003936160357639268,0.00023966236051156295
0.0005800668152887685,0.00040524080414569043
0.00031074928134249024,0.00017855968334645018
0.0008286717351659535,0.0008133281957420186
0.0007043685767354297,0.000575567595928706
0.0009736744691495199,0.00024030031647547163
0.0009736898359720082,0.0009820722048087382
0.0003729085439689963,0.0006683259274197397
4.1453167815438084e-05,0.0009858636190117633
0.0008079549301452725,0.0007924330424482157
0.0006007915365513375,0.0008082608696111761
0.000849377364315734,0.0002947528847934459
1.536682248831113e-08,0.0007417718883332665
0.0004972061144640698,0.0006363512951118645
0.0007872334685117162,0.0005467585290534229
0.0006629270504521798,0.0001516523771694174
0.0008079512048549723,0.0006126095543674238
0.0009736865763429955,0.0008247266527380453
0.0001864600927505922,0.0006151371638361072
1.629814506336029e-08,0.0007867277603534645
0.0009115403522325402,0.0009643426169475273
0.0008286582309886153,0.000161468051449148
0.0006629289130973299,0.00024156412120981334
0.00031075859456824073,0.0006281184035484299
0.00010358681907113028,0.00023934338252960862
0.0009736795914236827,0.0004875576125865605
0.00037290016206582084,0.000263723079237958
0.0005179261791137635,0.0008145920004763603
0.0008700969633041401,0.00045051565414784274
0.0004764865154756636,0.0004805885257574676
0.00039362395200581474,0.0006217872726832457
0.0004972089084317949,0.0007712189111724584
0.0007458087060348171,0.0009320490066576977
0.0009529548701611137,8.453754712107477e-05
0.0006836596879566366,0.0009367973548065859
0.0003107613885359659,0.0007629860196090238
0.0002900362016121094,0.00033748801813343913
8.287979293748727e-05,0.0006904848854478844
0.0009736893703107207,0.0009595942687986392
0.0003728959711142331,6.142165514706711e-05
0.00037291506322702163,0.0009830170315611256
0.0008701058108686031,0.0008775964383397235
0.00010359194134529305,0.00048660067864069747
0.0002900455148378599,0.0007870467383354189
0.0008908151653086837,0.0005388446154719426
0.0006629331040489176,0.0004438655453007042
0.0008079409603066467,0.00011809496214524608
0.0007872241552859657,9.719980885144314e-05
0.00043505104278915145,0.0003488864751294658
0.0005179131405977128,0.0001852097921935887
0.0007250821221270981,0.0004391171971518161
2.0731706181881812e-05,0.0007401891056169705
0.0004350487144827138,0.00023649679507897086
0.0007250760685303603,0.00014690402902052925
0.0006422204899798243,0.0006252718160977922
0.000538643449795732,0.0008579650897802622
0.0006422214213023993,0.0006702276881179901
0.000352195929899903,0.0008497321982168277
0.0008079530675001224,0.0007025212984078197
0.0005593509415906626,0.00042930152287208546
8.28765333084746e-05,0.0005331393333771915
0.0008286684755369408,0.0006559826436713257
0.000580067280950056,0.0004277187401557894
0.0008079423572905093,0.00018552877017554304
0.0003521810287387022,0.00013043824589366012
0.0008286689411982284,0.0006784605796814247
0.0008286554370208902,2.660043538855409e-05
0.000766521785765198,0.0007731206718707088
0.000580076128514519,0.0008547995243476702
4.144338892840007e-05,0.0005138269627996846
0.00045576738214854495,0.00034730369241316975
0.000310763251181116,0.0008528977636494198
0.0009115305733455022,0.0004923059607354486
0.0006629345010327802,0.0005112993533310012
0.00014502322308021748,0.0004160013051778084
0.0007872227583021031,2.9766000821146183e-05
0.00035218615101286497,0.00037769554200474897
0.0003936118448123391,3.736093642067208e-05
0.0005800612273533182,0.0001355055720245026
0.0008079451512582345,0.00032039638623613696
0.0007250774655142228,0.0002143378370508262
0.0009322441187371705,0.00035585556195855865
0.0007665236484103481,0.0008630324159111047
0.0001657344401654482,0.00016716122635042352
0.0004971968012383193,0.00018679257490988475
0.0008700904440461148,0.00013582455000645693
0.0007458031180993668,0.0006623137745365099
0.0006629303100811924,0.0003089979292401103
0.00047647813357248815,7.598567757568587e-05
0.0007457928735510413,0.0001677991823143322
0.00029004458351528485,0.0007420908663152209
0.0002278871835339289,0.00034223636628232727
0.0003107660451488411,0.0009877653797100137
6.215879696521852e-05,0.0004672883080631906
0.0006629321727263425,0.00039890967328050624
0.0009944047783475391,0.0009130556140621452
0.00010359333832915562,0.0005540344866709944
0.0003936309369251276,0.0009589563128347305
0.0006007901395674749,0.0007408270615808792
0.0006214971657011179,0.0002896855586626034
0.0006007840859707371,0.00044861389344959235
0.0008286605592950529,0.00027385773149964294
0.0002071689815293853,0.00025390740495822737
4.143966363809987e-05,0.0003340034747188927
0.0002071727068196855,0.00043373089303901926
1.0710209613065333e-08,0.0005169925282322767
0.0009944043126862516,0.0008905776780520462
0.0007665213201039104,0.0007506427358606098
0.0006215060132655809,0.0007167663428544841
0.00016573676847188583,0.00027955090640091845
0.00010360125457104354,0.0009361593988426772
0.0007043671797515672,0.0005081337878984091
0.0008908235472118592,0.0009434474636537244
0.0005386383275215692,0.0006107077936691734
0.0007250858474173983,0.000618940685232608
0.0005800682122726311,0.0004726746121759874
1.9557774076032347e-08,0.0009440733124241574
0.0009943903428476259,0.0002162395977490766
0.0005593472163003624,0.00024947803479129357
0.0009943898771863384,0.0001937616617389776
0.0005179126749364253,0.00016273185618348972
0.0007872381251245915,0.0007715378891544127
0.000807946548242097,0.0003878301942664339
0.0003314721399599091,0.0004916680047715399
0.00035219872386762813,0.0009845998142774216
4.1434075702649576e-05,6.426824259770487e-05
0.0001657456160363488,0.0007066316905927992
0.00014502415440279253,0.0004609571771980064
0.0004557622598743822,0.0001000463963020809
0.0008286726664885286,0.0008582840677622166
0.0009529679086771644,0.0007139197554038464
0.0008286708038433785,0.0007683723237218206
0.00037291366624315906,0.0009155832235308286
1.722946763840945e-08,0.0008316836323736625
0.0009943889458637633,0.00014880578971877964
0.0008286703381820909,0.0007458943877117217
0.00026931893093014086,0.0002941149288295372
0.00022788019861461604,5.067326130842476e-06
0.0008701072078524657,0.0009450302463700204
0.0007250844504335357,0.000551506877202311
0.000269331503784904,0.0009010192011022098
0.00045577529839043287,0.0007294286045848525
0.0009944052440088267,0.0009355335500722442
0.0002900320106605217,0.00013518659404254826
0.0006422242152701245,0.000805095304178584
0.0008493899371704971,0.0009016571570661185
0.000662940554629518,0.000803512521462288
0.0008700955663202775,0.0003830818461175458
0.0006214957687172553,0.00022225175063230644
0.00018646335237960487,0.0007724827159068001
0.0004350575620471768,0.0006635775792708516
0.0009115361612809525,0.0007620411928566365
0.0001657474786814989,0.0007965434346331951
0.0005386364648764191,0.0005207960496287775
0.0006422260779152746,0.00089500704821898
0.0004971986638834694,0.0002767043189502807
0.0008493801582834591,0.0004296205008540398
3.7252903001966375e-09,0.0001798234880807919
0.0004764944317175515,0.0008627134379291504
0.00016574887566536147,0.0008639772426634921
0.00039362860861869,0.0008465666327842356
0.0003521945329160404,0.0007822983901865307
0.0007043718363644424,0.0007329131479993989
0.000828661490617628,0.0003188136035198409
0.00020717689777127323,0.0006360323171299101
0.0006629358980166427,0.0005787331613612981
0.0006422251465926995,0.000850051176198782
0.0005800677466113436,0.0004501966761658884
0.0001450199634512048,0.0002586557531071155
0.0005179173315493005,0.0003875112162844796
8.287141103431182e-05,0.00028588203726610264
8.286861706658668e-05,0.00015101442120550872
0.0007043639201225545,0.0003507882358277162
0.0006836447867954358,0.0002175034024834183
0.0004764832558466509,0.0003232429736867747
0.0009322520349790584,0.0007379804741302414
0.00026932405320430363,0.0005413722249406261
2.072239295613132e-05,0.0002906303854149908
0.00041434634496194606,0.0009124176580982365
4.145083950900046e-05,0.0008734739389612684
0.00033147679657278433,0.0007164473648725298
0.0009115389552486776,0.0008969088089172304
0.00039361650142521435,0.00026214029652166194
0.0008701025512395904,0.0007202508862690306
0.0008908188905989839,0.0007186681035527345
0.00012431200599498675,0.0006648413840051933
0.00018645124518612923,0.00018805637964422646
6.215134638461813e-05,0.00010764133190160679
0.000704364385783842,0.00037326617183781516
4.144990818642541e-05,0.0008285180669410704
0.0007457965988413415,0.0003476226703951241
0.0008700964976428526,0.00042803771813774375
0.0009943926711540635,0.00032862927779957153
0.0002485997976030222,0.00016083009548523933
0.0003107539379553655,0.00040333904344744004
0.0002486072481836226,0.0005204770716468231
0.00029003154499923417,0.00011270865803244927
0.0006422176960120991,0.0004904042000371982
4.143780099294977e-05,0.00024409173067849676
0.00022788951184036653,0.0004546260463328222
0.00045576551950339485,0.0002573919483727738
0.0006836601536179242,0.0009592752908166849
0.0005179210568396007,0.0005673347043652715
0.00043505849336975184,0.0007085334512910496
6.216205659423119e-05,0.0006246338601338835
0.0004350538367568766,0.0004837540911900597
0.0007872302088827035,0.00038941297698272996
0.0008701030169008779,0.0007427288222791296
0.0007250909696915611,0.0008661979813436968
0.0008493755016705839,0.00020484114075304993
0.00029004598049914743,0.0008095246743455178
0.0005800598303694557,6.807176399420563e-05
0.0005386369305377067,0.0005432739856388764
8.286582309886153e-05,1.61468051449148e-05
0.00031076231985854093,0.0008079418916292218
0.0008079418916292218,0.00016305083416544405
0.00024861376744164795,0.0008351681757882089
0.00018645310783127933,0.0002779681236846224
2.0723789939993895e-05,0.00035806419344528773
0.0002278927714693792,0.0006119715984035151
0.0002900413238862722,0.000584745314244528
0.0009943987247508013,0.0006208424459308584
0.0004350445235311261,3.4195370988079985e-05
0.00022789882506611702,0.0009041847665348019
0.0003521866166741525,0.00040017347801484795
0.0007250756028690727,0.00012442609301043027
0.00022789556543710435,0.000746839214464109
0.0007250816564658106,0.0004166392611417171
0.0005593574608486879,0.0007439926270134713
0.0008493764329931589,0.0002497970127732479
0.0005386304112796813,0.00022858288149749063
0.0006007943305190626,0.00094312848567177
0.0006836554970050489,0.000734495930715695
0.0005386392588441443,0.0006556636656893714
6.215786564264347e-05,0.0004223324360429926
0.0007043611261548293,0.00021592061976712226
0.000932242721753308,0.0002884217539282617
0.0008079460825808095,0.00036535225825633493
0.0009322571572532212,0.0009852377702413303
0.00026932777849460383,0.000721195713021418
0.0007872367281407289,0.0007041040811241158
0.0008908053864216457,6.680795925986392e-05
0.0008493727077028587,6.997352469245602e-05
0.0007043727676870175,0.0007778690200195969
0.00022789742808225445,0.000836750958504505
0.0006214967000398304,0.0002672076226525044
0.0001864638180408924,0.0007949606519168991
0.00012429850181764853,1.2981239712322708e-05
2.0736362794757058e-05,0.0009649684657179604
0.0009115356956196649,0.0007395632568465375
0.00037290994095285886,0.0007357597354500367
0.0003314795905405095,0.0008513149809331237
0.000787228811898841,0.000321979168952433
0.00026931287733340304,1.9017606982503835e-06
0.0007872222926408156,7.288064811047197e-06
0.0005179164002267255,0.0003425553442642816
0.0006836587566340616,0.0008918414827863879
0.00010359380399044315,0.0005765124226810934
0.0004350580277084643,0.0006860555152809506
0.00041434401665550844,0.0008000279780477416
0.0009529581297901264,0.00024188309919176768
0.0006629424172746681,0.0008934242655026839
0.0006836466494405859,0.00030741514652381425
0.00033147167429862156,0.00046919006876144096
4.144385458968759e-05,0.0005363048988097836
0.00029003713293468446,0.0003824438901536371
4.190951587721217e-09,0.00020230142409089088
0.000828672200827241,0.0008358061317521176
0.000745797064502629,0.00037010060640522307
0.0008079539988226974,0.0007474771704280177
0.00016574235640733613,0.0005492861385221063
0.0007872264835924033,0.00020958948890193807
0.0005800775254983816,0.0009222333323779671
0.00012430874636597407,0.0005074958319345004
0.00010358495642598018,0.00014943163848921267
0.000621499028346268,0.00037959730270299935
0.0008079498078711097,0.0005451757463371268
0.0008286549713596026,4.122499378455104e-06
0.00020716851586809778,0.00023142946894812839
0.0007043713707031549,0.0007104352119893
0.0006007854829545997,0.0005160477014798893
0.0008286749947949662,0.0009706737478127115
0.000621498097023693,0.0003346414306828014
0.0004971954042544567,0.00011935876687958779
0.0004971958699157442,0.00014183670288968678
0.0009322385308017202,8.612032983737082e-05
1.2107193475639072e-08,0.0005844263362625736
0.0002278853208887788,0.0002523246222419313
0.0008700923066912649,0.00022573629404685287
0.0001864526421699918,0.0002554901876745234
0.0009736800570849702,0.0005100355485966595
0.0001864656806860425,0.000884872395957295
0.000580075197191944,0.0008098436523274722
0.0009736833167139829,0.0006673811006673524
2.071727068196855e-05,4.3373089303901926e-05
0.0002071764321099857,0.0006135543811198112
0.0007043583321871042,8.105300370652834e-05
0.0006214976313624054,0.0003121634946727024
0.0008493806239447466,0.0004520984368641388
0.0003107562662618031,0.000515728723497935
0.0009529711683061771,0.0008712653074745393
0.0004143295811555952,0.00010321196173467299
0.0002071801574002859,0.000793377869200603
0.0001450311393221054,0.0007981262173494912
0.0001657400281008985,0.00043689645847161136
0.00087009510065899,0.0003606039101074468
0.0005179219881621757,0.0006122905763854694
8.288212124392489e-05,0.0008028745654983793
0.00060079107089005,0.0007857829336010771
0.0006007798950191494,0.0002463124693587015
0.00016573769979446088,0.0003245067784211164
0.00014503346762854302,0.0009105158973999861
0.000932252500640346,0.0007604584101403404
0.0009943959307830762,0.00048597482987026443
0.000683658290972774,0.0008693635467762889
0.00020717037851324788,0.00032134121298852433
0.00022789975638869207,0.0009491406385549999
2.0727980891581616e-05,0.0005603656175361786
0.0004971930759480191,6.96908682909286e-06
0.00012431154033369922,0.0006423634479950943
0.0006007882769223248,0.0006509153175404832
0.0009944033813636766,0.0008456218060318482
0.00020718248570672352,0.000905767549251098
0.0004557799550033081,0.0009542079646858424
0.00035219127328702774,0.0006249528381158378
0.0004143281841717326,3.577815370437603e-05
0.0008700937036751275,0.00029317010207714983
0.00026931473997855314,9.181350473864633e-05
0.00014502974233824282,0.0007306924093191942
0.0008079493422098222,0.0005226978103270278
0.0001657437533911987,0.0006167199465524032
0.00010359426965173067,0.0005989903586911924
0.00016573118053643554,9.815674279730615e-06
0.0006007775667127117,0.00013392278930820655
0.0005593597891551255,0.0008563823070639662
0.0009115370926035275,0.0008069970648768344
0.0007043699737192923,0.000643001403959003
0.0006007878112610373,0.0006284373815303842
0.000455778092358158,0.0008642962206454464
1.8626451500983188e-08,0.0008991174404039595
0.0006214999596688431,0.0004245531747231973
0.0005386355335538441,0.0004758401776085795
0.0005800635556597559,0.0002478952520749975
0.00026932265622044106,0.0004739384169103291
0.0003107464873747651,4.369206728585626e-05
4.1447114218700265e-05,0.0006936504508804765
0.0007665124725394475,0.00032356195166872905
0.0001450255513866551,0.0005283909852283033
0.0007872246209472532,0.00011967774486154213
0.0006215102042171686,0.000919067766945375
0.0004143430853329334,0.0007550721060275436
0.0006836503747308861,0.00048723863460460614
0.00031076278551982845,0.0008304198276393208
1.583248377583571e-08,0.0007642498243433655
2.0720995972268747e-05,0.00022319657738469382
0.0004972065801253573,0.0006588292311219635
0.00022789230580809168,0.0005894936623934161
0.0009115282450390646,0.0003799162806849537
0.0002071782947551358,0.0007034661251602071
0.0007043574008645291,3.609713168633037e-05
0.0009115235884261893,0.00015513692058396382
0.0009736735378269449,0.00019534444445527366
0.000642215833366949,0.0004004924559968023
0.0005179150032428629,0.00027512153623398465
0.0004143435509942209,0.0007775500420376426
0.0007457933392123288,0.00019027711832443118
0.0008700881157396772,2.3434869955961998e-05
0.0009736730721656573,0.00017286650844517467
0.0006629340353714926,0.0004888214173209022
0.00029003340764438426,0.00020262040207284521
0.0008908086460506584,0.00022415351133055683
0.0008493834179124718,0.0005869660529247327
0.00035218428836771487,0.000287783797964353
0.0002693296411397539,0.0008111074570618139
0.0007457900795833161,3.2931566253738276e-05
0.000952969305661027,0.0007813535634341433
0.0009322562259306462,0.0009402818982211323
0.0006007892082448999,0.0006958711895606812
0.0002900469118217225,0.0008544805463657158
0.00031075673192309063,0.000538206659508034
0.000849379226960884,0.0003846646288338418
2.0726583907719042e-05,0.0004929318095058817
0.0006422116424153613,0.0001981910319059114
0.0007250877100625484,0.0007088524292730039
8.288072426006232e-05,0.0007354407574680824
0.0007665180604748978,0.0005932971837899169
0.0002486030572320349,0.00031817564755593224
0.00039362953994126503,0.0008915225048044336
0.0002693273128333163,0.000698717777011319
0.0008908044550990707,2.185208723966595e-05
0.0003314777278953594,0.0007614032368927278
8.288305256649994e-05,0.0008478304375185773
0.00045577716103558296,0.0008193403486252485
0.0005593453536552123,0.00015956629075089762
0.0006007752384062741,2.1533109257711614e-05
0.0004557701761162701,0.00048217130847376367
0.00041432911549430765,8.0734025724574e-05
0.0009115254510713394,0.00024504866462435977
0.000787238590785879,0.0007940158251645117
0.0005800784568209566,0.0009671892043981651
0.0008493717763802837,2.5017652672258044e-05
0.00024860445421589746,0.0003856094555862292
0.00037290435301740857,0.00046602450332884886
0.0009529623207417141,0.00044418452328265855
0.0009529720996287521,0.0009162211794947373
0.0008079484108872471,0.00047774193830682986
0.0007872353311568663,0.0006366702730938188
0.0006629335697102051,0.0004663434813108032
0.0008286638189240656,0.00043120328357033584
0.0001450181008060547,0.00016874400906671957
0.00018644798555711656,3.0710827573533555e-05
0.0009115212601197517,4.274724053346889e-05
0.0007250793281593729,0.00030424958109122216
0.000683647580763161,0.0003523710185440122
0.00043505290543430154,0.00043879821916986174
0.00014502275741892995,0.00039352336916770943
0.0008701011542557278,0.0006528170782387336
0.0009943866175573257,3.6416109668284706e-05
0.0008908137683248211,0.0004714108074416457
0.0006422162990282366,0.0004229703920069013
0.0003314665520244588,0.0002219327726503521
0.0006422079171250611,1.836754382511952e-05
0.0001035965979581683,0.0007113800387416873
0.0008908216845667091,0.0008535357196133284
0.00033148098752437205,0.0009187487889634207
0.000269321724897866,0.0004289825448901311
0.0002900492401281601,0.0009668702264162107
4.14382666542373e-05,0.00026656966668859574
0.0008700899783848273,0.00011334661399635794
0.0004143342377684704,0.00032799132183566285
0.0004972051831414947,0.0005913954230916665
0.0007872269492536909,0.00023206742491203706
0.0009736823853914078,0.0006224252286471544
0.0006629391576456554,0.000736078713431991
0.0005179252477911884,0.0007696361284561623
0.0006214925090882427,6.490619856161354e-05
0.0004143277185104451,1.3300217694277045e-05
0.0002900380642572595,0.0004273997621738351
0.0008493750360092963,0.00018236320474295095
0.0009322557602693586,0.0009178039622110333
0.0007872343998342913,0.0005917144010736208
0.0004972117023995201,0.0009060865272330523
0.0003936113791510516,1.4883000410573092e-05
0.0001657418907460486,0.0005268082025120073
0.0002900306136766591,6.77527860122513e-05
0.00043506035601490194,0.0007984451953314455
8.28672200827241e-05,8.358061317521176e-05
0.00024859840061915964,9.339628745494238e-05
0.0003729015590496834,0.00033115688726825495
0.0008079414259679343,0.00014057289815534507
0.0003314651550405962,0.00015449896462005515
0.00035219313593217783,0.0007148645821562338
0.0008493857462189094,0.0006993557329752276
0.0007457975301639165,0.00039257854241532206
0.00022789789374354197,0.000859228894514604
0.00018646288671831735,0.0007500047798967011
0.0009529632520642892,0.0004891403953028565
0.0005179247821299009,0.0007471581924460634
0.00037289643677552065,8.38995911571661e-05
0.00014502229175764243,0.00037104543315761044
8.288165558263737e-05,0.0007803966294882803
0.0007043592635096792,0.00012600887572672631
0.0008079586554355727,0.0009722565305290076
0.0006629400889682305,0.000781034585452189
0.00033146608636317127,0.00019945483664025312
0.0007043746303321676,0.0008677807640599929
0.0004972023891737696,0.0004565278070310726
0.00012431386864013684,0.0007547531280455893
0.0001243185252530121,0.0009795324881465791
0.0007250746715464977,7.94702209902323e-05
0.000435061287337477,0.0008434010673516435
0.00037290807830770876,0.0006458479914096408
0.00018646614634733002,0.000907350331967394
0.0006214939060721052,0.0001323400065919105
1.7695128925934028e-08,0.0008541615683837615
0.0009529674430158769,0.0006914418193937474
0.00010358449076469265,0.00012695370247911369
0.00043505476807945164,0.0005287099632102577
0.00010358635340984275,0.00021686544651950963
0.0009115329016519398,0.0006046956407859435
0.0006836415271664232,6.01578504127254e-05
0.0004972037861576321,0.0005239616150613695
0.0007872339341730037,0.0005692364650635219
0.00031075300663279044,0.00035838317142724207
0.0007458007897929292,0.000549924094486015
0.0005179196598557381,0.0004999008963349745
0.0006007947961803501,0.000965606421681869
0.000580065418304906,0.00033780699611539347
0.0006836527030373238,0.0005996283146551011
0.0007457947361961914,0.00025771092635472814
0.0008908221502279966,0.0008760136556234274
9.778887038016174e-09,0.0004720366562120787
0.00043505523374073917,0.0005511878992203567
0.0003314819188469471,0.0009637046609836187
0.0004971949385931692,9.68808308694888e-05
0.0007872423160761792,0.0009738393132453036
0.00014503207064468044,0.0008430820893696892
0.0007872348654955788,0.0006141923370837198
0.000538633670908694,0.00038592843356818353
0.000994402915702389,0.0008231438700217492
0.00047649117208853884,0.0007053678858584575
0.000952959526773989,0.00030931690722206463
8.28728080181744e-05,0.0003533158452963996
0.0002693324351074791,0.0009459750731224078
0.0002278811299371911,5.002319815104045e-05
0.0009529655803707268,0.0006015300753533515
0.00018645683312157953,0.0004577916117654143
8.288491521165004e-05,0.0009377421815589732
0.00020717596644869818,0.0005910764451097122
0.0004971944729318817,7.440289485938982e-05
0.00041433516909104547,0.0003729471938558608
0.0005179098809687001,2.78642401228958e-05
0.00022788764919521643,0.00036471430229242626
0.0004350561650633142,0.0005961437712405546
0.0005593458193164998,0.0001820442267609966
0.0005593560638648253,0.0006765588189831743
0.000331470277314759,0.000401756260731144
0.0004350477831601388,0.0001915409230587729
0.00031074788435862767,0.00011112587531615322
8.287373934074945e-05,0.00039827171731659757
0.0006215032192978557,0.0005818987267938902
0.00033148238450823463,0.0009861825969937176
0.0003521977925450531,0.0009396439422572236
0.0008079507391936848,0.0005901316183573248
0.0008286559026821777,4.907837139865308e-05
0.0002485993319417347,0.00013835215947514035
0.0007872232239633907,5.224393683124517e-05
0.0006007812920030119,0.00031374627738899844
8.287699896976212e-05,0.0005556172693872905
0.00018646242105702982,0.0007275268438866021
0.0007250737402239226,3.451434897003432e-05
1.8626451500983188e-09,8.991174404039595e-05
0.0007457910109058912,7.788743827393625e-05
0.0005386290142958188,0.00016114907346719367
0.0009115384895873901,0.0008744308729071314
0.0007872250866085408,0.00014215568087164111
0.00018645776444415458,0.0005027474837856123
2.073356882703191e-05,0.0008301008496573664
0.00033146794900832137,0.00028936658068064907
0.0002900338733056718,0.0002250983380829442
0.00014502881101566777,0.0006857365372989963
0.00045577483272914534,0.0007069506685747535
0.0009943945337992136,0.0004185410218399675
0.00035218196006127724,0.0001753941179138581
0.00012431526562399942,0.0008221869360758862
0.0007250825877883856,0.00046159513316191506
0.0006836457181180109,0.0002624592745036163
0.0008286647502466406,0.0004761591555905338
2.0733103165744386e-05,0.0008076229136472675
0.0009736707438592197,6.047682839467974e-05
0.00020717317248097303,0.00045620882904911825
0.0009529646490481518,0.0005565742033331535
0.0009736772631172451,0.00037516793253606555
0.0008493722420415712,4.749558868235703e-05
0.0008701006885944403,0.0006303391422286346
0.0008493829522511842,0.0005644881169146337
0.0006215097385558811,0.000896589830935276
0.000559358392171263,0.0007889484990336692
0.0007665157321684601,0.00048090750373942196
0.00018645962708930468,0.0005926592278260082
0.0008700997572718653,0.0005853832702084367
0.0007665082815878597,0.00012126052757783817
6.215600299749337e-05,0.00033242069200259666
0.0004143393600426332,0.0005752486179467517
0.0009322543632854961,0.0008503701541807364
0.0006214920434269551,4.2428262551514554e-05
0.0006629256534683172,8.421856913912043e-05
0.0007665078159265722,9.878259156773919e-05
0.0004350636156439146,0.0009557907474021384
6.216811019096901e-05,0.0009168470282651703
0.00037289829942067075,0.00017381133519756204
0.0004350482488214263,0.00021401885906887188
0.0004971963355770318,0.00016431463889978576
0.0001242998988015111,8.041504774261967e-05
0.0007250751372077852,0.00010194815700033128
0.0001243036240918113,0.00026023853582341156
0.00014501577249961708,5.6354329016224634e-05
0.0002486109734739228,0.000700300559727615
0.0005800584333855931,6.379559639086742e-07
0.00039361510444135177,0.00019470648849136498
0.00043505150845043897,0.0003713644111395648
0.00026931846526885334,0.0002716369928194382
0.0009736781944398201,0.0004201238045562635
0.0004972093740930824,0.0007936968471825574
0.0004972126337220951,0.0009510423992532503
0.00012430688372082398,0.00041758408789410446
0.0006422209556411118,0.0006477497521078911
0.00014502834535438025,0.0006632586012888973
4.1446182896125216e-05,0.0006486945788602785
0.0005386262203280936,2.6281457406599753e-05
0.0005179094153074126,5.386304112796813e-06
0.0008079479452259596,0.0004552640022967309
2.072844655286914e-05,0.0005828435535462776
0.0006007826889868745,0.0003811800854192954
0.00026931520563984067,0.00011429144074874532
0.000559360254816413,0.0008788602430740652
0.0008493778299770215,0.00031723082080354487
0.0007250905040302735,0.0008437200453335978
0.00035218056307741467,0.00010796030988356113
0.0009322399277855828,0.00015355413786766778
0.0005593420940261996,2.2207386802047206e-06
0.00039361836407036444,0.0003520520405620579
0.00022790068771126712,0.0009940965105751979
0.00047649676002398914,0.0009751031179796453
0.00018645869576672963,0.0005477033558058102
0.00016574980698793652,0.0009089331146836901
0.0008079572584517101,0.0009048227224987106
0.0005593546668809627,0.0006091250109528774
0.0009736726065043698,0.00015038857243507568
0.0009943870832186132,5.889404567838369e-05
0.000538634602231269,0.0004308843055883815
0.0008286670785530783,0.0005885488356410287
0.0003107483500199152,0.0001336038113262522
0.0006215004253301306,0.0004470311107332963
0.0005800738002080814,0.0007424098442971752
0.0002486105078126353,0.000677822623717516
0.0007665059532814221,8.870847527343243e-06
0.0003936290742799775,0.0008690445687943346
0.0005800691435952062,0.0005176304841961854
0.0009115240540874768,0.0001776148565940628
0.00045576784780983247,0.00036978162842326873
0.0009322552946080711,0.0008953260262009343
0.00018645497047642943,0.00036787986772501835
0.0006007803606804369,0.00026879040536880046
0.00010359240700658057,0.0005090786146507965
0.0004764790648950632,0.00012094154959588384
0.00033147120863733404,0.00044671213275134197
0.0003314781935566469,0.0007838811729028268
0.0006629396233069429,0.00075855664944209
0.00016573583714931078,0.00023459503438072048
0.000973675400472095,0.0002852561884956696
0.0007872399877697416,0.0008614496331948087
2.072751523029409e-05,0.0005378876815260796
0.0009529553358224013,0.00010701548313117376
2.0721927294843796e-05,0.0002681524494048918
0.0003729071469851337,0.0006008921193894428
0.0005800770598370941,0.0008997553963678681
0.00035219173894831526,0.0006474307741259368
0.0009322455157210331,0.0004232893699888556
0.00014501856646734223,0.00019122194507681855
0.0004143361004136205,0.0004179030658760588
0.0008079470139033846,0.0004103081302765329
0.0007872404534310291,0.0008839275692049077
0.0008908123713409586,0.0004039769994113487
8.288538087293756e-05,0.0009602201175690722
0.0007043615918161169,0.00023839855577722125
0.0007872255522698283,0.0001646336168817401
0.0003936132417962017,0.00010479474445096904
0.0009322529663016335,0.0007829363461504394
0.0008908072490667958,0.00015671970330025987
0.0008286619562789155,0.0003412915395299399
0.0006836531686986113,0.0006221062506652001
0.0002693287098171789,0.0007661515850416159
0.00041434587930065853,0.0008899397220881375
6.216950717483159e-05,0.0009842808362954673
0.0009322478440274707,0.0005356790500393505
0.00035218568535157744,0.00035521760599465
0.0006629279817747548,0.00019660824918961537
0.0004143374973974831,0.00048533687390635576
0.0002485979349578721,7.091835144484339e-05
0.0009943894115250508,0.00017128372572887862
6.053596737819536e-09,0.0002922131681312868
8.287606764718707e-05,0.0005106613973670925
0.0005593490789455125,0.0003393897788316895
0.00016574468471377375,0.0006616758185726012
0.0005179233851460383,0.0006797243844157664
1.443549991326197e-08,0.0006968160163130686
0.000290037598595972,0.0004049218261637361
0.0005386387931828568,0.0006331857296792724
0.0005800696092564937,0.0005401084202062843
0.0005800728688855063,0.0006974539722769773
0.0005179224538234633,0.0006347685123955684
2.0731240520594288e-05,0.0007177111696068715
0.00010358821605499285,0.0003067771905599056
0.0003521791660935521,4.052650185326417e-05
0.0003107488156812027,0.0001560817473363512
0.000994393136815351,0.0003511072138096705
0.00047648558415308855,0.00043563265373726965
0.0002071647905777976,5.1605980867336495e-05
0.00010359007870014295,0.0003966889346003015
8.287001405044925e-05,0.00021844822923580568
0.00024860771384491013,0.0005429550076569221
0.00012431014334983665,0.0005749296399647974
0.0005386401901667193,0.0007006195377095693
0.0006007868799384622,0.0005834815095101863
0.00033147912487922196,0.0008288370449230247
4.1441060621962445e-05,0.00040143728274918966
0.00010360078890975601,0.0009136814628325782
0.00031076045721339083,0.0007180301475888259
0.000248614698764223,0.0008801240478084069
0.00045577157310013267,0.0005496051165040606
0.00014502508572536757,0.0005059130492182044
0.0007043606604935418,0.00019344268375702327
0.0006836541000211863,0.000667062122685398
0.0007457905452446037,5.540950226383726e-05
0.00024859653797400954,3.48454341454643e-06
0.00016574515037506127,0.0006841537545827002
0.0007457914765671787,0.00010036537428403523
0.00010360218589361859,0.0009811152708628752
0.00022788997750165406,0.0004771039823429212
0.00045577669537429544,0.0007968624126151495
0.00014503020799953035,0.0007531703453292932
8.287746463104964e-05,0.0005780952053973895
0.0006629419516133806,0.000870946329492585
0.0004350468518375637,0.00014658505103857492
0.0002900497057894476,0.0009893481624263097
0.00039363000560255256,0.0009140004408145325
8.287187669559935e-05,0.0003083599732762016
0.00029004039256369713,0.00053978944222433
0.0009529688399997395,0.0007588756274240444
0.000745796133180054,0.0003251447343850251
0.0005179238508073258,0.0007022023204258654
0.00010359939192589344,0.0008462476548022812
0.000952960458096564,0.0003542727792422626
0.0006215046162817183,0.0006493325348241872
0.0008908160966312588,0.0005838004874921406
0.0007665152665071726,0.00045842956772932297
0.000227889046179079,0.0004321481103227232
9.313225750491594e-09,0.0004495587202019797
0.0008493843492350468,0.0006319219249449307
0.0006629293787586174,0.0002640420572199123
0.0006215116012010312,0.000986501574975672
0.0008079563271291351,0.0008598668504785126
4.144944252513789e-05,0.0008060401309309714
0.000683656428327624,0.000779451802735893
0.0003936123104736266,5.9838872430771064e-05
8.287886161491222e-05,0.0006455290134276864
0.0007250797938206605,0.00032672751710132114
0.0008286754604562537,0.0009931516838228105
0.0006007906052287624,0.0007633049975909782
7.916241887917855e-09,0.00038212491217168277
0.0007043769586386052,0.0009801704441104878
0.0009322487753500458,0.0005806349220595485
0.0004972033204963446,0.0005014836790512706
0.0005593555982035378,0.0006540808829730753
0.0008286731321498161,0.0008807620037723156
0.0004557641225195323,0.00018995814034247684
0.0001035891473775679,0.00035173306258010355
0.00035217870043226457,1.8048565843165184e-05
0.00045576179421309465,7.756846029198191e-05
0.0009115319703293647,0.0005597397687657456
0.00020717177549711046,0.0003887750210188213
0.0002486160957480856,0.0009475578558387039
0.0007250783968367979,0.0002592937090710242
0.0004350440578698386,1.1717434977980999e-05
0.0003314670176857463,0.0002444107086604511
0.00014501670382219213,0.00010131020103642261
0.0003728950397916581,1.6465783126869138e-05
0.0004764846528305135,0.0003906767817170717
0.0004972084427705074,0.0007487409751623594
0.0003521963955611905,0.0008722101342269267
0.00035219546423861546,0.0008272542622067287
0.0009529641833868642,0.0005340962673230545
0.0006215069445881559,0.0007617222148746821
0.0006214994940075555,0.00040207523871309834
0.0007250788624980854,0.00028177164508112317
0.0004972103054156575,0.0008386527192027554
6.216531622324386e-05,0.0007819794122045764
4.144152628324997e-05,0.00042391521875928865
0.00043506221866005204,0.0008883569393718415
0.00022788858051779148,0.00040967017431262423
0.0005800765941758065,0.0008772774603577691
0.0008908077147280833,0.00017919763931035886
0.0006836522373760362,0.0005771503786450021
0.0004557627255356697,0.00012252433231217988
0.0003936192953929395,0.00039700791258225586
4.145037384771294e-05,0.0008509960029511694
0.00012430222710794873,0.0001928047277931146
0.00018645217650870428,0.00023301225166442443
0.00047648604981437607,0.00045811058974736863
0.0009115398865712527,0.0009418646809374283
0.0007043587978483917,0.00010353093971662733
0.0004143319094620328,0.00021560164178516792
0.00014503067366081787,0.0007756482813393922
0.0007872316058665661,0.0004568467850130269
0.0008079567927904226,0.0008823447864886116
0.0006836405958438481,1.5201978392527429e-05
0.0009529627864030017,0.00046666245929275754
0.0008079432886130844,0.00023048464219574101
0.0004350505771278639,0.0003264085391193668
0.0009115408178938277,0.0009868205529576263
0.0008700960319815651,0.00040555978212764477
8.288584653422509e-05,0.0009826980535791712
0.00045578042066459564,0.0009766859006959414
0.00016574049376218603,0.00045937439448171034
0.0002900417895475597,0.000607223250254627
0.0009115226571036143,0.00011018104856376585
0.00014502462006408005,0.0004834351132081054
2.071913332711865e-05,0.00013328483334429787
0.0004350449891924136,5.667330699817897e-05
0.0002071671188842352,0.00016399566091783143
0.00024860259157074736,0.00029569771154583325
0.0005386266859893811,4.875939341669874e-05
0.00020717876041642332,0.0007259440611703061
2.073450014960696e-05,0.0008750567216775644
1.1175870900589913e-08,0.0005394704642423757
0.0008908240128731467,0.0009659253996638234
0.00020716385925522254,6.650108847138523e-06
0.00029004272087013476,0.0006521791222748249
0.0006215008909914181,0.0004695090467433953
0.00014501903212862976,0.00021369988108691754
0.0001450330019672555,0.0008880379613898871
0.00041434215401035834,0.0007101162340073456
0.00037291320058187153,0.0008931052875207296
0.0003936267459735399,0.0007566548887438396
0.0009529618550804266,0.00042170658727255957
0.0004350598903536144,0.0007759672593213465
0.0002486142331029355,0.0008576461117983079
0.00024860585119976003,0.00045304326361652616
0.0005800621586758933,0.00018046144404470056
8.28709453730243e-05,0.00026340410125600365
0.0007458101030186797,0.0009994828146879947
8.288444955036251e-05,0.0009152642455488743
0.00014501530683832956,3.387639300612565e-05
4.145270215415056e-05,0.0009633856830016643
0.0005179122092751377,0.00014025392017339073
0.0002900487744668726,0.0009443922904061118
0.0004143449479780835,0.0008449838500679395
0.0007250928323367112,0.0009561097253840928
4.143361004136205e-05,4.179030658760588e-05
0.0009115221914423267,8.770311255366686e-05
0.0001864507795248417,0.00016557844363412747
0.0001657325775202981,7.724948231002757e-05
0.0006836606192792117,0.0009817532268267838
0.0004972070457866448,0.0006813071671320624
8.288025859877479e-05,0.0007129628214579834
0.00037289876508195827,0.00019628927120766103
6.216717886839396e-05,0.0008718911562449723
0.0009322501723339083,0.0006480687300898455
4.1452236492863035e-05,0.0009409077469915653
0.0003521796317548396,6.300443786336316e-05
0.0004143468106232336,0.0009348955941083355
0.0009736805227462577,0.0005325134846067585
0.0004764869811369511,0.0005030664617675666
0.00016573304318158563,9.972741832012656e-05
0.0005179136062590003,0.0002076877282036877
0.0002486011945868848,0.0002282639035155363
6.215693432006842e-05,0.00037737656402279463
0.00014502601704794262,0.0005508689212384023
6.215926262650604e-05,0.0004897662440732896
0.0005593537355583877,0.0005641691389326794
0.0001243129373175618,0.0007097972560253913
0.0009736828510526954,0.0006449031646572534
0.00018645403915385438,0.0003229239957048204
0.0003107469530360526,6.617000329595525e-05
0.000538642518473157,0.0008130092177600643
8.847564462967014e-09,0.00042708078419188074
0.00047648372150793845,0.0003457209096968737
0.0009944005873959514,0.0007107541899712543
6.216624754581891e-05,0.0008269352842247744
0.0007457993928090666,0.000482490286455718
0.0007043755616547426,0.0009127366360801908
0.0006836513060534612,0.0005321945066248041
0.0004557664508259699,0.0003023478203929718
0.0008700946349977025,0.0003381259740973478
0.00039361696708650187,0.00028461823253176093
0.00012431340297884932,0.0007322751920354903
0.0009115394209099651,0.0009193867449273294
0.0007250872444012609,0.0006863744932629049
0.0008493894715092096,0.0008791792210560195
0.0007872292775601285,0.000344457104962532
0.0003728973680980957,0.00012885546317736407
0.0008286680098756533,0.0006335047076612267
0.00018645916142801715,0.0005701812918159092
0.00016574095942347355,0.00048185233049180933
0.0002485974692965846,4.84404154347444e-05
0.0003936211580380896,0.0004869196566226518
0.00037290761264642124,0.0006233700553995418
0.000559359323493838,0.0008339043710538672
0.0006007933991964876,0.0008981726136515721
0.0003936174327477894,0.0003070961685418599
0.0006836429241502857,0.00012759165844302236
0.0004972014578511945,0.0004115719350108746
4.1448045541275314e-05,0.0007386063229006745
0.0004972112367382325,0.0008836085912229533
0.0009322371338178577,1.868652180707386e-05
0.0005593486132842249,0.00031691184282159053
4.14364040090872e-05,0.0001766579226481998
0.0004764827901853634,0.00030076503767667573
4.144245760582502e-05,0.0004688710907794866
0.00020716758454552273,0.0001864735969279304
0.0008493866775414844,0.0007443116049954256
0.00010359520097430572,0.0006439462307113904
0.0008286572996660403,0.00011651217942895004
0.00016574841000407394,0.0008414993066533931
0.0007457956675187664,0.0003026667983749261
0.0007665148008458851,0.000435951631719224
0.00018646707766990507,0.000952306203987592
0.0007043629887999794,0.0003058323638075182
4.1436869670374724e-05,0.00019913585865829878
0.00031075160964892786,0.0002909493633969451
0.000745806843389667,0.0008421372626173018
0.0008079502735323972,0.0005676536823472258
0.0008908142339861087,0.0004938887434517447
0.000828671269504666,0.0007908502597319196
9.313225750491594e-10,4.495587202019797e-05
0.0003728955054529456,3.8943719136968124e-05
0.00045576924479369505,0.0004372154364535657
0.0008908133026635336,0.0004489328714315467
0.0009529716339674646,0.0008937432434846383
0.0008079386320002091,5.70528209475115e-06
0.00016573397450416068,0.00014468329034032453
4.144571723483769e-05,0.0006262166428501795
0.0005386373961989942,0.0005657519216489754
0.000745805912067092,0.0007971813905971038
0.0006629349666940677,0.0005337772893411002
0.0004971972668996068,0.00020927051091998374
0.0006007845516320246,0.00047109182945969134
0.0007665259767167857,0.0009754220959615997
0.0004143323751233203,0.0002380795777952669
0.0006007938648577751,0.0009206505496616711
0.0005800588990468806,2.311589197400766e-05
1.2572854763163652e-08,0.0006069042722726726
0.0007872311402052786,0.00043436884900292794
0.000870103948223453,0.0007876846942993275
0.000952970236983602,0.0008263094354543413
2.0727049569006567e-05,0.0005154097455159806
0.0004764823245240759,0.00027828710166657674
0.00031075486927794054,0.000448294915467638
2.0489096651081506e-08,0.0009890291844443554
0.0005593616518002756,0.0009462940511043621
8.288118992134984e-05,0.0007579186934781813
0.0007250835191109607,0.000506551005182113
0.000662941485952093,0.000848468393482486
0.0006215055476042934,0.0006942884068443852
0.00031074602171347757,2.1214131275757277e-05
0.0003314628267341586,4.210928456956022e-05
0.0006836559626663364,0.000756973866725794
0.0005593579265099754,0.0007664705630235703
6.214994940075555e-05,4.0207523871309834e-05
6.215181204590565e-05,0.00013011926791170578
0.0001243054867369614,0.0003501502798638075
0.0007665161978297477,0.0005033854397495209
0.0009736879733268581,0.0008921604607683422
0.000269330572462329,0.0008560633290820119
0.00029002921669279654,3.189779819543371e-07
0.00041433889438134567,0.0005527706819366527
0.0009944061753314017,0.0009804894220924421
0.0008700983602880027,0.0005179494621781397
0.0009736875076655706,0.0008696825247582432
0.00024860631686104756,0.00047552119962662514
0.0008493713107189961,2.5397166621590576e-06
0.0005386308769409689,0.0002510608175075896
0.0005800649526436184,0.0003153290601052945
0.0004972130993833826,0.0009735203352633493
0.0007458012554542167,0.000572402030496114
0.0006215111355397436,0.000964023638965573
4.144664855741274e-05,0.0006711725148703775
0.0005386457781021696,0.0009703547698307572
0.0007043736990095925,0.0008228248920397949
0.00041434029136520824,0.0006202044899669497
0.0008079558614678475,0.0008373889144684136
0.0006422111767540738,0.00017571309589581243
0.0008079442199356594,0.000275440514215939
0.0004971935416093066,2.9447022839191846e-05
0.0003729090096302838,0.0006908038634298387
0.0008908193562602714,0.0007411460395628335
0.00010359566663559324,0.0006664241667214894
0.0003107502126650653,0.00022351555536664815
0.0007872362624794414,0.0006816261451140168
0.00033147865921793443,0.0008063591089129258
0.00022788392390491624,0.00018489081421163437
0.00047649489737883904,0.0008851913739392494
0.0008286642845853531,0.00045368121958043483
0.00016573909677832345,0.0003919405864514134
0.0009322394621242953,0.0001310762018575688
0.00033146981165347146,0.000379278324721045
0.0004972042518189197,0.0005464395510714685
0.0006629312414037675,0.00035395380126030827
0.00047647766791120063,5.350774156558688e-05
0.00018645357349256686,0.0003004460596947214
0.0007043625231386919,0.0002833544277974192
8.28783959536247e-05,0.0006230510774175874
0.00012431805959172457,0.0009570545521364801
0.00029003852991854704,0.00044987769818393406
0.0007250765341916478,0.00016938196503062824
0.00029004411785399733,0.0007196129303051219
0.00014503439895111807,0.0009554717694201841
6.216298791680624e-05,0.0006695897321540815
0.0007458045150832294,0.0007297475825668069
0.0006007873455997498,0.0006059594455202853
0.0008701034825621655,0.0007652067582892285
0.00020716805020681026,0.0002089515329380294
0.0009322538976242085,0.0008278922181706374
0.00039362022671551454,0.00044196378460245383
0.0008286628876014905,0.00038624741155013787
0.00039361277613491415,8.231680844087005e-05
0.00041433097813945775,0.00017064576976496995
0.0005800733345467939,0.0007199319082870762
8.287793029233717e-05,0.0006005731414074884
0.0004143412226877833,0.0006651603619871476
0.0008701002229331528,0.0006078612062185356
0.000766512938200735,0.00034603988767882804
0.0002278909088242291,0.0005220598543631192
0.0006422186273346742,0.0005353600720573962
0.00047649303473368894,0.0007952796298988534
0.0007665264423780732,0.0009979000319716986
0.0005179182628718755,0.00043246708830467755
0.000704363454461267,0.0003283102998176172
0.00012429896747893606,3.5459175722421694e-05
0.0008286652159079282,0.0004986370916006328
0.0006007929335352,0.0008756946776414731
8.287234235688687e-05,0.0003308379092863006
0.0002693193965914284,0.0003165928648396362
0.00029003480462824684,0.0002700542101031422
0.0003936230206832397,0.0005768314006630477
0.00026932824415589135,0.0007436736490315169
0.00035219686122247803,0.0008946880702370257
0.0006836508403921737,0.0005097165706147051
0.0007458091716961047,0.0009545269426677967
0.0006214934404108177,0.00010986207058181151
0.0003521926702708903,0.0006923866461461348
4.1435007025224626e-05,0.00010922411461790284
0.0008908174936151213,0.0006512342955224376
6.215507167491832e-05,0.0002874648199823987
0.0009322473783661832,0.0005132011140292516
0.00033147726223407186,0.0007389253008826288
0.0006629410202908055,0.000825990457472387
0.00016573956243961098,0.00041441852246151237
2.0720530310981223e-05,0.00020071864137459483
0.0008286610249563404,0.0002963356675097419
0.0006007784980352868,0.00017887866132840452
0.0001243073493821115,0.00044006202390420345
0.00022788578655006633,0.0002748025582520303
0.0005386415871505819,0.0007680533457398663
0.000207182020045436,0.000883289613240999
0.00022789184014680415,0.0005670157263833171
0.0009736870420042831,0.0008472045887481443
0.0003521889449805901,0.0005125631580653429
0.0004350543024181641,0.0005062320272001587
0.0005593439566713497,9.213248272060067e-05
4.143873231552482e-05,0.00028904760269869473
0.0005593528042358127,0.0005192132669124814
0.0004350594246923269,0.0007534893233112475
0.0008908114400183835,0.00035902112739115075
0.0008493862118801969,0.0007218336689853266
0.0009943996560733764,0.0006657983179510563
0.0009115263823939145,0.00029000453664455774
0.0004972079771092199,0.0007262630391522604
0.0007665115412168724,0.0002786060796485311
4.1435938347799675e-05,0.0001541799866381008
0.00020718434835187362,0.000995679293291494
0.0001243147999627119,0.0007997090000657872
1.3504177338212811e-08,0.0006518601442928706
4.656612875245797e-09,0.00022477936010098986
0.0003314646893793087,0.00013202102860995616
0.0009529725652900397,0.0009386991155048363
0.0008286698725208034,0.0007234164517016227
0.000994400121734664,0.0006882762539611553
0.0005800607616920307,0.0001130276360144036
0.0005386271516506687,7.123732942679773e-05
0.0004764962943627016,0.0009526251819695463
0.0003107558006005156,0.000493250787487836
2.0724721262568944e-05,0.0004030200654654857
0.0006007766353901367,8.896691728800857e-05
0.0005386318082635439,0.0002960166895277876
0.0004557757640517204,0.0007519065405949515
0.0008079488765485347,0.0005002198743169288
0.0008700918410299774,0.0002032583580367539
0.0005593518729132376,0.00047425739489228343
0.0003521884793193026,0.0004900852220552439
0.000165749341326649,0.0008864551786735911
0.0002486016602481723,0.0002507418395256353
0.0007457952018574789,0.0002801888623648271
0.0007043657827677046,0.0004406999798681121
0.0001450292766769553,0.0007082144733090952
0.00041433656607490804,0.0004403810018861578
0.00022788206125976614,9.497907017123842e-05
0.0009943954651217887,0.00046349689386016545
0.00022789323713066673,0.0006344495344136141
0.0004557659851646824,0.0002798698843828728
0.00010358588774855523,0.00019438751050941065
0.0003314763309114968,0.0006939694288624308
0.0006215022879752807,0.0005369428547736923
0.00016573350884287316,0.00012220535433022555
0.00012431247165627427,0.0006873193200152923
0.0008701062765298906,0.0009000743743498225
0.0007250732745626351,1.2036412959935336e-05
0.0007457989271477791,0.000460012350445619
0.0005800779911596691,0.0009447112683880661
0.00024860817950619766,0.0005654329436670211
0.0007043690423967173,0.000598045531938805
0.0006007780323739993,0.00015640072531830553
0.0009943982590895138,0.0005983645099207594
0.0008700895127235397,9.086867798625896e-05
0.00018644751989582904,8.232891563434569e-06
2.0730774859306763e-05,0.0006952332335967725
0.0006215050819430058,0.0006718104708342862
0.000849378295638309,0.00033970875681364385
0.0006629275161134673,0.00017413031317951638
0.0006629354323553552,0.0005562552253511991
0.0005800593647081681,4.559382798410665e-05
0.00031075347229407796,0.00038086110743734106
0.000807954464483985,0.0007699551064381167
0.00031074974700377777,0.00020103761935654917
